{
    "name": "Beef and Buffalo Meat",
    "total_value": 333971200.0,
    "children": [
        {
            "name": "Argentina",
            "value": 13925000.0,
            "value_percentage": 4.169521204223598
        },
        {
            "name": "Australia",
            "value": 10875099.0,
            "value_percentage": 3.2562984472912637
        },
        {
            "name": "Belarus",
            "value": 1522500.0,
            "value_percentage": 0.45587763256232877
        },
        {
            "name": "Brazil",
            "value": 46062000.0,
            "value_percentage": 13.792207232240386
        },
        {
            "name": "Canada",
            "value": 5636082.0,
            "value_percentage": 1.6875952177912348
        },
        {
            "name": "Chad",
            "value": 1565520.0,
            "value_percentage": 0.4687589828104939
        },
        {
            "name": "China, mainland",
            "value": 30938000.0,
            "value_percentage": 9.26367303527969
        },
        {
            "name": "Colombia",
            "value": 4114263.0,
            "value_percentage": 1.231921495027116
        },
        {
            "name": "EU27",
            "value": 34941309.0,
            "value_percentage": 10.462371905122358
        },
        {
            "name": "Egypt",
            "value": 4207587.0,
            "value_percentage": 1.2598652219113504
        },
        {
            "name": "Ethiopia",
            "value": 1863900.0,
            "value_percentage": 0.5581020159822164
        },
        {
            "name": "India",
            "value": 12696618.0,
            "value_percentage": 3.8017104468888334
        },
        {
            "name": "Indonesia",
            "value": 2525508.0,
            "value_percentage": 0.756205325489144
        },
        {
            "name": "Iran (Islamic Republic of)",
            "value": 1839172.0,
            "value_percentage": 0.5506977847191614
        },
        {
            "name": "Japan",
            "value": 2558984.0,
            "value_percentage": 0.7662289442922025
        },
        {
            "name": "Kazakhstan",
            "value": 1952755.0,
            "value_percentage": 0.5847076035298852
        },
        {
            "name": "Kenya",
            "value": 2238600.0,
            "value_percentage": 0.6702973190502655
        },
        {
            "name": "Mexico",
            "value": 8880960.0,
            "value_percentage": 2.659199356112144
        },
        {
            "name": "Myanmar",
            "value": 1461077.0,
            "value_percentage": 0.43748592693022625
        },
        {
            "name": "New Zealand",
            "value": 3128106.0,
            "value_percentage": 0.9366394467546902
        },
        {
            "name": "Nigeria",
            "value": 1653294.0,
            "value_percentage": 0.4950408897533679
        },
        {
            "name": "Others",
            "value": 33214548.0,
            "value_percentage": 9.945333010750627
        },
        {
            "name": "Pakistan",
            "value": 7692000.0,
            "value_percentage": 2.303192610620317
        },
        {
            "name": "Paraguay",
            "value": 1689777.0,
            "value_percentage": 0.5059648855949256
        },
        {
            "name": "Philippines",
            "value": 1480827.0,
            "value_percentage": 0.44339961050533694
        },
        {
            "name": "Republic of Korea",
            "value": 1466000.0,
            "value_percentage": 0.4389600061322653
        },
        {
            "name": "Russian Federation",
            "value": 8368185.0,
            "value_percentage": 2.5056606677462008
        },
        {
            "name": "South Africa",
            "value": 4406107.0,
            "value_percentage": 1.3193074732192476
        },
        {
            "name": "Turkey",
            "value": 3265491.0,
            "value_percentage": 0.9777762274112259
        },
        {
            "name": "Ukraine",
            "value": 2096600.0,
            "value_percentage": 0.6277786827127608
        },
        {
            "name": "United Kingdom of Great Britain and Northern Ireland",
            "value": 4409000.0,
            "value_percentage": 1.3201737155778703
        },
        {
            "name": "United Republic of Tanzania",
            "value": 1321143.0,
            "value_percentage": 0.39558590680873085
        },
        {
            "name": "United States of America",
            "value": 59584827.0,
            "value_percentage": 17.841306974972692
        },
        {
            "name": "Uruguay",
            "value": 2470700.0,
            "value_percentage": 0.739794329570933
        },
        {
            "name": "Uzbekistan",
            "value": 3413700.0,
            "value_percentage": 1.0221540060939387
        },
        {
            "name": "Venezuela (Bolivarian Republic of)",
            "value": 2612882.0,
            "value_percentage": 0.7823674616254335
        },
        {
            "name": "Viet Nam",
            "value": 1893079.0,
            "value_percentage": 0.5668389968955406
        }
    ]
}