{
    "name": "Beef and Buffalo Meat",
    "total_value": 72603095.0,
    "children": [
        {
            "name": "Argentina",
            "value": 3135908.0,
            "value_percentage": 4.31924837364027
        },
        {
            "name": "Australia",
            "value": 2351793.0,
            "value_percentage": 3.2392462056886147
        },
        {
            "name": "Belarus",
            "value": 328100.0,
            "value_percentage": 0.45190910938438644
        },
        {
            "name": "Brazil",
            "value": 10200000.0,
            "value_percentage": 14.048987856509424
        },
        {
            "name": "Canada",
            "value": 1388625.0,
            "value_percentage": 1.9126250747299411
        },
        {
            "name": "Chad",
            "value": 456896.0,
            "value_percentage": 0.6293065054595812
        },
        {
            "name": "China, mainland",
            "value": 6589822.0,
            "value_percentage": 9.076502868093984
        },
        {
            "name": "Colombia",
            "value": 776680.0,
            "value_percentage": 1.0697615576856607
        },
        {
            "name": "EU27",
            "value": 7008267.0,
            "value_percentage": 9.652848821389776
        },
        {
            "name": "Egypt",
            "value": 746834.0,
            "value_percentage": 1.0286531173361135
        },
        {
            "name": "Ethiopia",
            "value": 391684.0,
            "value_percentage": 0.5394866430969644
        },
        {
            "name": "India",
            "value": 2521736.0,
            "value_percentage": 3.473317494247318
        },
        {
            "name": "Indonesia",
            "value": 514393.0,
            "value_percentage": 0.7085000990660246
        },
        {
            "name": "Iran (Islamic Republic of)",
            "value": 369562.0,
            "value_percentage": 0.5090168676693466
        },
        {
            "name": "Japan",
            "value": 470907.0,
            "value_percentage": 0.6486045808377728
        },
        {
            "name": "Kazakhstan",
            "value": 501249.0,
            "value_percentage": 0.6903961876556364
        },
        {
            "name": "Kenya",
            "value": 462125.0,
            "value_percentage": 0.6365086777636684
        },
        {
            "name": "Mexico",
            "value": 2027634.0,
            "value_percentage": 2.7927652395534928
        },
        {
            "name": "Myanmar",
            "value": 489584.0,
            "value_percentage": 0.6743293794844422
        },
        {
            "name": "New Zealand",
            "value": 683923.0,
            "value_percentage": 0.9420025413517151
        },
        {
            "name": "Nigeria",
            "value": 329616.0,
            "value_percentage": 0.45399717463835393
        },
        {
            "name": "Others",
            "value": 7173018.0,
            "value_percentage": 9.879768899659167
        },
        {
            "name": "Pakistan",
            "value": 2221000.0,
            "value_percentage": 3.059098238167395
        },
        {
            "name": "Paraguay",
            "value": 481693.0,
            "value_percentage": 0.6634606968201562
        },
        {
            "name": "Philippines",
            "value": 309756.0,
            "value_percentage": 0.4266429688706797
        },
        {
            "name": "Russian Federation",
            "value": 1625163.0,
            "value_percentage": 2.2384211031223944
        },
        {
            "name": "South Africa",
            "value": 1033310.0,
            "value_percentage": 1.4232313374519365
        },
        {
            "name": "Sudan",
            "value": 388300.0,
            "value_percentage": 0.5348256847728048
        },
        {
            "name": "Turkey",
            "value": 1075552.0,
            "value_percentage": 1.4814134301023942
        },
        {
            "name": "Ukraine",
            "value": 369500.0,
            "value_percentage": 0.5089314718608071
        },
        {
            "name": "United Kingdom of Great Britain and Northern Ireland",
            "value": 914000.0,
            "value_percentage": 1.2588995000832954
        },
        {
            "name": "United Republic of Tanzania",
            "value": 479071.0,
            "value_percentage": 0.6598492805299829
        },
        {
            "name": "United States of America",
            "value": 12348749.0,
            "value_percentage": 17.00857105334146
        },
        {
            "name": "Uruguay",
            "value": 580320.0,
            "value_percentage": 0.799304767930348
        },
        {
            "name": "Uzbekistan",
            "value": 938274.0,
            "value_percentage": 1.2923333364782865
        },
        {
            "name": "Venezuela (Bolivarian Republic of)",
            "value": 470284.0,
            "value_percentage": 0.6477464906971252
        },
        {
            "name": "Viet Nam",
            "value": 449767.0,
            "value_percentage": 0.6194873648292817
        }
    ]
}