reporter_grouped_2,value,total_value,value_percentage
Brazil,3181609.0,43945230.0,7.239941627339304
Cameroon,2470000.0,43945230.0,5.620632774023483
Côte d'Ivoire,11197380.0,43945230.0,25.480308101698412
Dominican Republic,738663.0,43945230.0,1.6808718488900845
Ecuador,1777354.0,43945230.0,4.044475361717302
Ghana,8970500.0,43945230.0,20.412909432946417
Indonesia,5512920.0,43945230.0,12.54497928444111
Nigeria,6073582.0,43945230.0,13.82079920846927
Others,4023222.0,43945230.0,9.15508236047462
