reporter_grouped_2,value,total_value,value_percentage
Brazil,1020576.0,20578920.0,4.959327311637345
Cameroon,913129.0,20578920.0,4.437205645388582
Côte d'Ivoire,6714746.0,20578920.0,32.62924390589983
Ecuador,451090.0,20578920.0,2.1920003576475344
Ghana,3506281.0,20578920.0,17.038216777168092
Indonesia,3753516.0,20578920.0,18.239616073146696
Nigeria,2065590.0,20578920.0,10.03740721087404
Others,1817292.0,20578920.0,8.830842434879965
Togo,336700.0,20578920.0,1.6361402833579217
