reporter_grouped_2,value,total_value,value_percentage
Brazil,11492470.0,53507285.0,21.478327670708765
Cameroon,863000.0,53507285.0,1.6128644912557235
Colombia,3893954.0,53507285.0,7.27742773717635
Côte d'Ivoire,3633650.0,53507285.0,6.790944448031702
Dominican Republic,666710.0,53507285.0,1.2460172479317535
Ecuador,948782.0,53507285.0,1.7731828479056637
El Salvador,783741.0,53507285.0,1.4647369979620533
Ethiopia,1615057.0,53507285.0,3.0183871224264136
Guatemala,1239211.0,53507285.0,2.3159668818928116
Honduras,1205843.0,53507285.0,2.2536052801034474
India,1687361.0,53507285.0,3.1535163856659896
Indonesia,6458970.0,53507285.0,12.071197407979119
Kenya,828000.0,53507285.0,1.5474528374968006
Madagascar,653530.0,53507285.0,1.2213850880305364
Mexico,3825280.0,53507285.0,7.14908259688377
Nicaragua,599030.0,53507285.0,1.119529798605928
Others,5034737.0,53507285.0,9.409442097463923
Peru,1575572.0,53507285.0,2.944593432464383
Philippines,632488.0,53507285.0,1.1820596017906722
Uganda,1377000.0,53507285.0,2.5734813493153315
United Republic of Tanzania,1084266.0,53507285.0,2.0263894907020608
Venezuela (Bolivarian Republic of),973633.0,53507285.0,1.8196269909788918
Viet Nam,2435000.0,53507285.0,4.55078219722791
