{
    "name": "Coffee, green",
    "total_value": 42376663.0,
    "children": [
        {
            "name": "Brazil",
            "value": 14049933.0,
            "value_percentage": 33.15488291279566
        },
        {
            "name": "China, mainland",
            "value": 394275.0,
            "value_percentage": 0.9304059642449902
        },
        {
            "name": "Colombia",
            "value": 2587800.0,
            "value_percentage": 6.1066629998685835
        },
        {
            "name": "Costa Rica",
            "value": 467315.0,
            "value_percentage": 1.1027649817542264
        },
        {
            "name": "Côte d'Ivoire",
            "value": 494777.0,
            "value_percentage": 1.167569518156727
        },
        {
            "name": "El Salvador",
            "value": 393675.0,
            "value_percentage": 0.9289900906071816
        },
        {
            "name": "Ethiopia",
            "value": 1680397.0,
            "value_percentage": 3.9653830222544895
        },
        {
            "name": "Guatemala",
            "value": 1282359.0,
            "value_percentage": 3.026097170511043
        },
        {
            "name": "Honduras",
            "value": 1384070.0,
            "value_percentage": 3.266113709802964
        },
        {
            "name": "India",
            "value": 1486100.0,
            "value_percentage": 3.50688302191232
        },
        {
            "name": "Indonesia",
            "value": 3372230.0,
            "value_percentage": 7.957752596045611
        },
        {
            "name": "Mexico",
            "value": 1224516.0,
            "value_percentage": 2.8895998724581027
        },
        {
            "name": "Nicaragua",
            "value": 445889.0,
            "value_percentage": 1.0522041341480806
        },
        {
            "name": "Others",
            "value": 3930118.0,
            "value_percentage": 9.274250782795237
        },
        {
            "name": "Peru",
            "value": 1416036.0,
            "value_percentage": 3.3415467376466146
        },
        {
            "name": "Philippines",
            "value": 447072.0,
            "value_percentage": 1.0549957650039599
        },
        {
            "name": "Uganda",
            "value": 963229.0,
            "value_percentage": 2.2730175804546007
        },
        {
            "name": "Venezuela (Bolivarian Republic of)",
            "value": 329975.0,
            "value_percentage": 0.7786715060598329
        },
        {
            "name": "Viet Nam",
            "value": 6026897.0,
            "value_percentage": 14.222207633479778
        }
    ]
}