{
    "name": "Coffee, green",
    "total_value": 46884097.0,
    "children": [
        {
            "name": "Brazil",
            "value": 14713277.0,
            "value_percentage": 31.382233937447918
        },
        {
            "name": "China, mainland",
            "value": 590425.0,
            "value_percentage": 1.2593289362062363
        },
        {
            "name": "Colombia",
            "value": 4039453.0,
            "value_percentage": 8.615827665402193
        },
        {
            "name": "Costa Rica",
            "value": 443154.0,
            "value_percentage": 0.9452117633832213
        },
        {
            "name": "Ethiopia",
            "value": 2289889.0,
            "value_percentage": 4.8841486698570735
        },
        {
            "name": "Guatemala",
            "value": 1153851.0,
            "value_percentage": 2.4610711815565094
        },
        {
            "name": "Honduras",
            "value": 1944616.0,
            "value_percentage": 4.147709190175935
        },
        {
            "name": "India",
            "value": 1607500.0,
            "value_percentage": 3.4286679340331543
        },
        {
            "name": "Indonesia",
            "value": 3396630.0,
            "value_percentage": 7.24473801852257
        },
        {
            "name": "Lao People's Democratic Republic",
            "value": 691335.0,
            "value_percentage": 1.474561832768156
        },
        {
            "name": "Mexico",
            "value": 867400.0,
            "value_percentage": 1.8500942867684964
        },
        {
            "name": "Nicaragua",
            "value": 573857.0,
            "value_percentage": 1.2239907276021547
        },
        {
            "name": "Others",
            "value": 4356407.0,
            "value_percentage": 9.291865000620573
        },
        {
            "name": "Peru",
            "value": 1458697.0,
            "value_percentage": 3.111283128690737
        },
        {
            "name": "Uganda",
            "value": 1278633.0,
            "value_percentage": 2.7272211300134455
        },
        {
            "name": "Viet Nam",
            "value": 7478973.0,
            "value_percentage": 15.952046596951627
        }
    ]
}