reporter_grouped_2,value,total_value,value_percentage
Brazil,14049933.0,42376663.0,33.15488291279566
"China, mainland",394275.0,42376663.0,0.9304059642449902
Colombia,2587800.0,42376663.0,6.1066629998685835
Costa Rica,467315.0,42376663.0,1.1027649817542264
Côte d'Ivoire,494777.0,42376663.0,1.167569518156727
El Salvador,393675.0,42376663.0,0.9289900906071816
Ethiopia,1680397.0,42376663.0,3.9653830222544895
Guatemala,1282359.0,42376663.0,3.026097170511043
Honduras,1384070.0,42376663.0,3.266113709802964
India,1486100.0,42376663.0,3.50688302191232
Indonesia,3372230.0,42376663.0,7.957752596045611
Mexico,1224516.0,42376663.0,2.8895998724581027
Nicaragua,445889.0,42376663.0,1.0522041341480806
Others,3930118.0,42376663.0,9.274250782795237
Peru,1416036.0,42376663.0,3.3415467376466146
Philippines,447072.0,42376663.0,1.0549957650039599
Uganda,963229.0,42376663.0,2.2730175804546007
Venezuela (Bolivarian Republic of),329975.0,42376663.0,0.7786715060598329
Viet Nam,6026897.0,42376663.0,14.222207633479778
