reporter_grouped_2,value,total_value,value_percentage
Brazil,10649670.0,51765047.0,20.57309056437252
Cameroon,708455.0,51765047.0,1.3685972312552908
Colombia,3735066.0,51765047.0,7.215420861107303
Côte d'Ivoire,2650383.0,51765047.0,5.120024328385136
Dominican Republic,550970.0,51765047.0,1.0643668497007257
Ecuador,555538.0,51765047.0,1.0731913370039055
El Salvador,725962.0,51765047.0,1.4024173492974903
Ethiopia,2476540.0,51765047.0,4.784193473252328
Guatemala,1258501.0,51765047.0,2.4311790927186836
Honduras,1517023.0,51765047.0,2.9305933016925496
India,1811479.0,51765047.0,3.499425007766341
Indonesia,6303311.0,51765047.0,12.176770553304047
Kenya,655195.0,51765047.0,1.2657092728999164
Madagascar,546507.0,51765047.0,1.0557452019699702
Mexico,3590782.0,51765047.0,6.936692243320092
Nicaragua,581399.0,51765047.0,1.1231497577892666
Others,4830162.0,51765047.0,9.330933283997597
Peru,1829505.0,51765047.0,3.5342477328379514
Philippines,600141.0,51765047.0,1.1593556555642652
Uganda,1613859.0,51765047.0,3.1176616144094296
United Republic of Tanzania,946166.0,51765047.0,1.8278086369746753
Venezuela (Bolivarian Republic of),911487.0,51765047.0,1.7608155557165823
Viet Nam,2716946.0,51765047.0,5.248611094663934
