{
    "name": "Oil palm fruit",
    "total_value": 28312612.0,
    "children": [
        {
            "name": "Colombia",
            "value": 504117.0,
            "value_percentage": 1.7805386518206092
        },
        {
            "name": "Ghana",
            "value": 374256.0,
            "value_percentage": 1.3218702675683898
        },
        {
            "name": "Indonesia",
            "value": 14677560.0,
            "value_percentage": 51.84106644770182
        },
        {
            "name": "Malaysia",
            "value": 5216822.0,
            "value_percentage": 18.4257884790001
        },
        {
            "name": "Nigeria",
            "value": 3934935.0,
            "value_percentage": 13.898170186487915
        },
        {
            "name": "Others",
            "value": 2708600.0,
            "value_percentage": 9.56676127232627
        },
        {
            "name": "Thailand",
            "value": 896322.0,
            "value_percentage": 3.1658046950948924
        }
    ]
}