{
    "name": "Oil palm fruit",
    "total_value": 410696692.0,
    "children": [
        {
            "name": "Indonesia",
            "value": 245633087.0,
            "value_percentage": 59.80887885992517
        },
        {
            "name": "Malaysia",
            "value": 99065364.0,
            "value_percentage": 24.121295819933216
        },
        {
            "name": "Nigeria",
            "value": 10025174.0,
            "value_percentage": 2.441016495940026
        },
        {
            "name": "Others",
            "value": 39200637.0,
            "value_percentage": 9.544911795880742
        },
        {
            "name": "Thailand",
            "value": 16772430.0,
            "value_percentage": 4.083897028320842
        }
    ]
}