reporter_grouped_2,value,total_value,value_percentage
Indonesia,1030920894.0,1795980934.0,57.401550009995816
Malaysia,480210158.0,1795980934.0,26.738043200184663
Nigeria,43700000.0,1795980934.0,2.433210685743282
Others,176211192.0,1795980934.0,9.811417741921307
Thailand,64938690.0,1795980934.0,3.615778362154929
