{
    "name": "Oil palm fruit",
    "total_value": 99381071.0,
    "children": [
        {
            "name": "Ghana",
            "value": 1773137.0,
            "value_percentage": 1.7841798062329193
        },
        {
            "name": "Guinea",
            "value": 1550000.0,
            "value_percentage": 1.5596531456176397
        },
        {
            "name": "Indonesia",
            "value": 42785953.0,
            "value_percentage": 43.052416893353865
        },
        {
            "name": "Malaysia",
            "value": 24851703.0,
            "value_percentage": 25.00647532768086
        },
        {
            "name": "Nigeria",
            "value": 15850000.0,
            "value_percentage": 15.948711198735218
        },
        {
            "name": "Others",
            "value": 9752451.0,
            "value_percentage": 9.813187664278642
        },
        {
            "name": "Thailand",
            "value": 2817827.0,
            "value_percentage": 2.83537596410085
        }
    ]
}