reporter_grouped_2,value,total_value,value_percentage
Côte d'Ivoire,1037426.0,70054752.0,1.4808788417379595
Ghana,1613500.0,70054752.0,2.3031985039358926
Guinea,1550000.0,70054752.0,2.2125551168891437
Indonesia,20660000.0,70054752.0,29.49121852576111
Malaysia,20884786.0,70054752.0,29.812090406086945
Nigeria,16095000.0,70054752.0,22.97488684279405
Others,6313135.0,70054752.0,9.011715579265772
Thailand,1900905.0,70054752.0,2.7134561835291344
