reporter_grouped_2,value,total_value,value_percentage
Argentina,16575887.0,120501628.0,13.755736976433214
Brazil,35881447.0,120501628.0,29.7767321450628
"China, mainland",8423000.0,120501628.0,6.98994705698084
India,11131260.0,120501628.0,9.23743536477366
Others,11800686.0,120501628.0,9.79296810828149
Paraguay,3565000.0,120501628.0,2.958466254082476
Russian Federation,2772198.0,120501628.0,2.300548171847106
United States of America,30352150.0,120501628.0,25.18816592253841
