reporter_grouped_2,value,total_value,value_percentage
Argentina,75835477.0,466105271.0,16.270032054625702
Brazil,108346793.0,466105271.0,23.24513360845473
"China, mainland",46364870.0,466105271.0,9.947295790182128
India,42003500.0,466105271.0,9.011590860125674
Others,37513921.0,466105271.0,8.048379482925865
Paraguay,10903510.0,466105271.0,2.3392805613648595
United States of America,145137200.0,466105271.0,31.13828764232104
