reporter_grouped_2,value,total_value,value_percentage
Argentina,91762477.0,610514446.0,15.030353106501268
Brazil,164375940.0,610514446.0,26.924168801732172
Canada,12195400.0,610514446.0,1.997561250172285
"China, mainland",37056316.0,610514446.0,6.069687006226877
India,55448230.0,610514446.0,9.08221424788366
Others,60673403.0,610514446.0,9.938078189226008
Paraguay,17300000.0,610514446.0,2.833675781686581
United States of America,171702680.0,610514446.0,28.12426161657115
