{
    "name": "Soybeans",
    "total_value": 333671692.0,
    "children": [
        {
            "name": "Argentina",
            "value": 55263891.0,
            "value_percentage": 16.56235525068156
        },
        {
            "name": "Brazil",
            "value": 114269392.0,
            "value_percentage": 34.246055251219815
        },
        {
            "name": "China, mainland",
            "value": 15724000.0,
            "value_percentage": 4.712416539069188
        },
        {
            "name": "India",
            "value": 13267520.0,
            "value_percentage": 3.9762198346750974
        },
        {
            "name": "Others",
            "value": 29833359.0,
            "value_percentage": 8.940931974535017
        },
        {
            "name": "Paraguay",
            "value": 8520350.0,
            "value_percentage": 2.5535129902479112
        },
        {
            "name": "United States of America",
            "value": 96793180.0,
            "value_percentage": 29.008508159571416
        }
    ]
}