productcode_fao,productcode,productdescription
NA,2013000,"FRESH OR CHILLED BOVINE MEAT, BONELESS"
NA,2109939,"MEAT, SALTED, IN BRINE, DRIED OR SMOKED (EXCL. OF SWINE, BOVINE ANIMALS, REINDEER, SHEEP OR GOATS, PRIMATES, WHALES, DOLPHINS AND PORPOISES ""MAMMALS OF THE ORDER CETACEA"", MANATEES AND DUGONGS ""MAMMALS OF THE ORDER SIRENIA"", SEALS, SEA LIONS AND WALRUSES, REPTILES, AND MEAT, SALTED, IN BRINE OR DRIED, OF HORSES)"
NA,2023090,"FROZEN BOVINE BONELESS MEAT (EXCL. FOREQUARTERS, WHOLE OR CUT INTO A MAXIMUM OF FIVE PIECES, EACH QUARTER BEING IN A SINGLE BLOCK ""COMPENSATED"" QUARTERS IN TWO BLOCKS, ONE OF WHICH CONTAINS THE FOREQUARTER, WHOLE OR CUT INTO A MAXIMUM OF FIVE PIECES, AND THE OTHER, THE HINDQUARTER, EXCL. THE TENDERLOIN, IN ONE PIECE, CROP, CHUCK AND BLADE AND BRISKET CUTS)"
NA,2071410,FROZEN BONELESS CUTS OF FOWLS OF THE SPECIES GALLUS DOMESTICUS
NA,3021400,"FRESH OR CHILLED ATLANTIC SALMON ""SALMO SALAR"" AND DANUBE SALMON ""HUCHO HUCHO"""
NA,3061792,"FROZEN SHRIMPS OF THE GENUS ""PENAEUS"", EVEN SMOKED, WHETHER IN SHELL OR NOT, INCL. SHRIMPS IN SHELL, COOKED BY STEAMING OR BY BOILING IN WATER"
NA,3061799,"FROZEN SHRIMPS AND PRAWNS, EVEN SMOKED, WHETHER IN SHELL OR NOT, INCL. SHRIMPS AND PRAWNS IN SHELL, COOKED BY STEAMING OR BY BOILING IN WATER (EXCL. ""PANDALIDAE"", ""CRANGON"", DEEPWATER ROSE SHRIMPS ""PARAPENAEUS LONGIROSTRIS"" AND ""PENAEUS"")"
NA,3047190,"FROZEN FILLETS OF COD ""GADUS MORHUA, GADUS OGAC"""
NA,3048100,"FROZEN FILLETS OF PACIFIC SALMON ""ONCORHYNCHUS NERKA, ONCORHYNCHUS GORBUSCHA, ONCORHYNCHUS KETA, ONCORHYNCHUS TSCHAWYTSCHA, ONCORHYNCHUS KISUTCH, ONCORHYNCHUS MASOU AND ONCORHYNCHUS RHODURUS"", ATLANTIC SALMON ""SALMO SALAR"" AND DANUBE SALMON ""HUCHO HUCHO"""
NA,3047500,"FROZEN FILLETS OF ALASKA POLLACK ""THERAGRA CHALCOGRAMMA"""
NA,3075910,"OCTOPUS ""OCTOPUS SPP."", FROZEN (EXCL. SMOKED)"
NA,3044100,"FRESH OR CHILLED FILLETS OF PACIFIC SALMON ""ONCORHYNCHUS NERKA, ONCORHYNCHUS GORBUSCHA, ONCORHYNCHUS KETA, ONCORHYNCHUS TSCHAWYTSCHA, ONCORHYNCHUS KISUTCH, ONCORHYNCHUS MASOU AND ONCORHYNCHUS RHODURUS"", ATLANTIC SALMON ""SALMO SALAR"" AND DANUBE SALMON ""HUCHO HUCHO"""
NA,3074938,"SQUID ""LOLIGO SPP."", FROZEN (EXCL. LOLIGO VULGARIS, PEALEI AND PATAGONICA)"
NA,3079917,"MOLLUSCS, FIT FOR HUMAN CONSUMPTION, EVEN IN SHELL, FROZEN (EXCL. SMOKED AND OYSTERS, SCALLOPS OF THE GENERA PECTEN, CHLAMYS OR PLACOPECTEN, MUSSELS ""MYTILUS SPP., PERNA SPP."", CUTTLE FISH ""SEPIA OFFICINALIS, ROSSIA MACROSOMA, SEPIOLA SPP."", SQUID ""OMMASTREPHES SPP., LOLIGO SPP., NOTOTODARUS SPP., SEPIOTEUTHIS SPP., TODARODES SAGITTATUS"", OCTOPUS ""OCTOPUS SPP."", SNAILS OTHER THAN SEA SNAILS, CLAMS, COCKLES AND ARK SHELLS, ABALONE, ILLEX SPP. AND VENERIDAE); FROZEN FLOURS, MEALS AND PELLETS OF MOLLUSCS, FIT FOR HUMAN CONSUMPTION"
NA,3036310,"FROZEN COD ""GADUS MORHUA"""
NA,3046200,"FROZEN FILLETS OF CATFISH ""PANGASIUS SPP., SILURUS SPP., CLARIAS SPP., ICTALURUS SPP."""
NA,3047411,"FROZEN FILLETS OF CAPE HAKE ""SHALLOW-WATER HAKE"" ""MERLUCCIUS CAPENSIS"" AND DEEPWATER HAKE ""DEEPWATER CAPE HAKE"" ""MERLUCCIUS PARADOXUS"""
NA,3072990,"SCALLOPS, INCL. QUEEN SCALLOPS, OF THE GENERA PECTEN, CHLAMYS OR PLACOPECTEN, FROZEN, DRIED, SALTED OR IN BRINE, EVEN IN SHELL (EXCL. SMOKED, AND FROZEN COQUILLES ST JACQUES ""PECTEN MAXIMUS"")"
NA,3056200,"COD ""GADUS MORHUA, GADUS OGAC, GADUS MACROCEPHALUS"", SALTED OR IN BRINE ONLY (EXCL. FILLETS AND OFFAL)"
NA,3044410,"FRESH OR CHILLED FILLETS OF COD ""GADUS MORHUA, GADUS OGAC, GADUS MACROCEPHALUS"" AND OF BOREOGADUS SAIDA"
NA,3044990,"FRESH OR CHILLED FILLETS OF FISH, N.E.S."
NA,3055190,"COD ""GADUS MORHUA, GADUS OGAC, GADUS MACROCEPHALUS"", DRIED, SALTED, NOT SMOKED CLIPFISH (EXCL. FILLETS AND OFFAL)"
NA,3025110,"FRESH OR CHILLED COD ""GADUS MORHUA"""
NA,3062210,"LIVE LOBSTERS ""HOMARUS SPP."""
NA,3061699,"FROZEN COLD-WATER SHRIMPS AND PRAWNS ""PANDALUS SPP."", EVEN SMOKED, WHETHER IN SHELL OR NOT, INCL. SHRIMPS AND PRAWNS IN SHELL, COOKED BY STEAMING OR BY BOILING IN WATER"
NA,3048990,"FROZEN FISH FILLETS, N.E.S."
NA,3075200,"OCTOPUS ""OCTOPUS SPP."", FROZEN"
NA,3074399,"CUTTLE FISH AND SQUID, FROZEN, WITH OR WITHOUT SHELL (EXCL. ""SEPIA OFFICINALIS, ROSSIA MACROSOMA, SEPIOLA SPP., LOLIGO SPP., OMMASTREPHES SPP., NOTOTODARUS SPP., SEPIOTEUTHIS SPP., ILLEX SPP., TODARODES SAGITTATUS"")"
NA,3074338,"SQUID ""LOLIGO SPP."", FROZEN (EXCL. ""LOLIGO VULGARIS, PEALEI AND GAHI"")"
NA,3074329,"CUTTLE FISH ""SEPIA OFFICINALIS, ROSSIA MACROSOMA"", FROZEN, WITH OR WITHOUT SHELL"
NA,3074392,"SQUID ""ILLEX SPP."", FROZEN"
NA,3072290,"SCALLOPS, INCL. QUEEN SCALLOPS, OF THE GENERA PECTEN, CHLAMYS OR PLACOPECTEN, FROZEN, EVEN IN SHELL (EXCL. COQUILLES ST JACQUES ""PECTEN MAXIMUS"")"
NA,3048700,"FROZEN FILLETS OF TUNA ""OF THE GENUS THUNNUS"", SKIPJACK OR STRIPE-BELLIED BONITO ""EUTHYNNUS [KATSUWONUS] PELAMIS"""
NA,7133390,"DRIED, SHELLED KIDNEY BEANS ""PHASEOLUS VULGARIS"", WHETHER OR NOT SKINNED OR SPLIT (EXCL. FOR SOWING)"
NA,7020000,"TOMATOES, FRESH OR CHILLED"
NA,7082000,"FRESH OR CHILLED BEANS ""VIGNA SPP., PHASEOLUS SPP."", SHELLED OR UNSHELLED"
NA,7096010,FRESH OR CHILLED SWEET PEPPERS
NA,7031019,"ONIONS, FRESH OR CHILLED (EXCL. SETS)"
NA,7092000,FRESH OR CHILLED ASPARAGUS
NA,7134000,"DRIED, SHELLED LENTILS, WHETHER OR NOT SKINNED OR SPLIT"
NA,7099990,FRESH OR CHILLED VEGETABLES N.E.S.
NA,7019050,FRESH OR CHILLED NEW POTATOES FROM 1 JANUARY TO 30 JUNE
NA,7142010,"SWEET POTATOES, FRESH, WHOLE, FOR HUMAN CONSUMPTION"
NA,7129090,"DRIED VEGETABLES AND MIXTURES OF VEGETABLES, WHOLE, CUT, SLICED, BROKEN OR IN POWDER, BUT NOT FURTHER PREPARED (EXCL. POTATOES, ONIONS, MUSHROOMS, TRUFFLES, SWEETCORN, TOMATOES AND CARROTS)"
NA,9011100,COFFEE (EXCL. ROASTED AND DECAFFEINATED)
NA,9024000,"BLACK FERMENTED TEA AND PARTLY FERMENTED TEA, WHETHER OR NOT FLAVOURED, IN IMMEDIATE PACKINGS OF > 3 KG"
NA,10059000,MAIZE (EXCL. SEED FOR SOWING)
236,12019000,"SOYA BEANS, WHETHER OR NOT BROKEN (EXCL. SEED FOR SOWING)"
NA,12051090,"LOW ERUCIC RAPE OR COLZA SEEDS ""YIELDING A FIXED OIL WHICH HAS AN ERUCIC ACID CONTENT OF < 2% AND YIELDING A SOLID COMPONENT OF GLUCOSINOLATES OF < 30 MICROMOLES/G"", WHETHER OR NOT BROKEN (EXCL. FOR SOWING)"
NA,12024200,"GROUNDNUTS, SHELLED, WHETHER OR NOT BROKEN (EXCL. SEED FOR SOWING, ROASTED OR OTHERWISE COOKED)"
NA,12119086,"PLANTS AND PARTS OF PLANTS, INCL. SEEDS AND FRUITS, USED PRIMARILY IN PERFUMERY, IN PHARMACY OR FOR INSECTICIDAL, FUNGICIDAL OR SIMILAR PURPOSES, FRESH, CHILLED, FROZEN OR DRIED, WHETHER OR NOT CUT, CRUSHED OR POWDERED (EXCL. GINSENG ROOTS, COCA LEAF, POPPY STRAW, EPHEDRA AND TONQUIN BEANS)"
254,15111010,"CRUDE PALM OIL, FOR TECHNICAL OR INDUSTRIAL USES (EXCL. FOR MANUFACTURE OF FOODSTUFFS)"
254,15111090,CRUDE PALM OIL (EXCL. FOR TECHNICAL OR INDUSTRIAL USES)
NA,15121191,CRUDE SUNFLOWER-SEED OIL (EXCL. FOR TECHNICAL OR INDUSTRIAL USES)
254,15119091,"PALM OIL AND ITS LIQUID FRACTIONS, WHETHER OR NOT REFINED, BUT NOT CHEMICALLY MODIFIED, FOR INDUSTRIAL USES (EXCL. FOR PRODUCTION OF FOODSTUFFS AND CRUDE)"
NA,17011410,"RAW CANE SUGAR FOR REFINING, IN SOLID FORM, NOT CONTAINING ADDED FLAVOURING OR COLOURING MATTER (EXCL. CANE SUGAR OF 1701 13)"
NA,17019910,"WHITE SUGAR, CONTAINING IN DRY STATE>= 99,5% SUCROSE (EXCL. FLAVOURED OR COLOURED)"
NA,18010000,"COCOA BEANS, WHOLE OR BROKEN, RAW OR ROASTED"
NA,28441090,"COMPOUNDS OF NATURAL URANIUM; ALLOYS, DISPERSIONS INCL. CERMETS, CERAMIC PRODUCTS AND MIXTURES CONTAINING NATURAL URANIUM OR COMPOUNDS OF NATURAL URANIUM [EURATOM] (EXCL. FERRO-URANIUM)"
NA,28046900,"SILICON CONTAINING < 99,99% BY WEIGHT OF SILICON"
NA,40111000,"NEW PNEUMATIC TYRES, OF RUBBER, OF A KIND USED FOR MOTOR CARS, INCL. STATION WAGONS AND RACING CARS"
NA,40012200,"TECHNICALLY SPECIFIED NATURAL RUBBER ""TSNR"""
NA,44013100,WOOD PELLETS
NA,44123210,"PLYWOOD CONSISTING SOLELY OF SHEETS OF WOOD <= 6 MM THICK, WITH AT LEAST ONE OUTER PLY OF ALDER,  ASH, BEECH, BIRCH, CHERRY, CHESTNUT, ELM, HICKORY, HORNBEAM, HORSE CHESTNUT, LIME, MAPLE, OAK, PLANE TREE, POPLAR, ROBINIA, WALNUT OR YELLOW POPLAR (EXCL. SHEETS OF COMPRESSED WOOD, CELLULAR WOOD PANELS, INLAID WOOD AND SHEETS IDENTIFIABLE AS FURNITURE COMPONENTS)"
NA,44123300,"PLYWOOD CONSISTING SOLELY OF SHEETS OF WOOD <= 6 MM THICK, WITH AT LEAST ONE OUTER PLY OF NON-CONIFEROUS WOOD OF THE SPECIES ALDER, ASH, BEECH, BIRCH, CHERRY, CHESTNUT, ELM, EUCALYPTUS, HICKORY, HORSE CHESTNUT, LIME, MAPLE, OAK, PLANE TREE, POPLAR, ASPEN, ROBINIA, TULIPWOOD OR WALNUT (EXCL. OF BAMBOO, WITH AN OUTER PLY OF TROPICAL WOOD, AND SHEETS OF COMPRESSED WOOD, CELLULAR WOOD PANELS, INLAID WOOD AND SHEETS IDENTIFIABLE AS FURNITURE COMPONENTS)"
NA,47032900,"SEMI-BLEACHED OR BLEACHED NON-CONIFEROUS CHEMICAL WOOD PULP, SODA OR SULPHATE (EXCL. DISSOLVING GRADES)"
NA,48010000,"NEWSPRINT AS SPECIFIED IN NOTE 4 TO CHAPTER 48, IN ROLLS OF A WIDTH > 28 CM OR IN SQUARE OR RECTANGULAR SHEETS WITH ONE SIDE > 28 CM AND THE OTHER SIDE > 15 CM IN THE UNFOLDED STATE"
NA,48192000,"FOLDING CARTONS, BOXES AND CASES, OF NON-CORRUGATED PAPER OR PAPERBOARD"
NA,48194000,"SACKS AND BAGS, INCL. CONES, OF PAPER, PAPERBOARD, CELLULOSE WADDING OR WEBS OF CELLULOSE FIBRES (EXCL. THOSE HAVING A BASE OF A WIDTH OF >= 40 CM, AND RECORD SLEEVES)"
NA,52010090,"COTTON, NEITHER CARDED NOR COMBED (EXCL. RENDERED ABSORBENT OR BLEACHED)"
NA,52052300,"SINGLE COTTON YARN, OF COMBED FIBRES, CONTAINING >= 85% COTTON BY WEIGHT AND WITH A LINEAR DENSITY OF 192,31 DECITEX TO < 232,56 DECITEX ""> MN 43 TO MN 52"" (EXCL. SEWING THREAD AND YARN PUT UP FOR RETAIL SALE)"
NA,52094200,"DENIM, CONTAINING >= 85% COTTON BY WEIGHT AND WEIGHING > 200 G/MÂ², MADE OF YARN OF DIFFERENT COLOURS"
