"partnercode","partner"
1,"France"
2,"Belgium and Luxembourg"
3,"Netherlands"
4,"Germany"
5,"Italy"
6,"United Kingdom"
7,"Ireland"
8,"Denmark"
9,"Greece"
10,"Portugal"
11,"Spain"
17,"Belgium"
18,"Luxembourg"
19,"EUR12 Estim"
21,"Ceuta"
22,"Ceuta and Mellila"
23,"Melilla"
24,"Iceland"
25,"Faroe Islands"
27,"Svalbard"
28,"Norway"
30,"Sweden"
32,"Finland"
36,"Switzerland"
37,"Liechtenstein"
38,"Austria"
39,"Switzerland"
40,"Portugal"
41,"Faroe Islands"
42,"Spain"
43,"Andorra"
44,"Gibraltar"
45,"Holy See (Vatican City State)"
46,"Malta"
47,"San Marino"
48,"Yugoslavia"
50,"Greece"
52,"Turkey"
53,"Estonia"
54,"Latvia"
55,"Lithuania"
56,"Soviet Union"
58,"Germany, Democratic Republic of"
60,"Poland"
61,"Czechia"
62,"Czechoslovakia"
63,"Slovakia"
64,"Hungary"
66,"Romania"
68,"Bulgaria"
70,"Albania"
72,"Ukraine"
73,"Belarus"
74,"Moldova, Republic of"
75,"Russian Federation"
76,"Georgia"
77,"Armenia"
78,"Azerbaijan"
79,"Kazakhstan"
80,"Turkmenistan"
81,"Uzbekistan"
82,"Tajikistan"
83,"Kyrgyz, Republic"
90,"Yugoslavia"
91,"Slovenia"
92,"Croatia"
93,"Bosnia and Herzegovina"
94,"Serbia and Montenegro"
95,"Kosovo"
96,"North Macedonia"
97,"Montenegro"
98,"Serbia"
201,"Spanish Sahara"
202,"Canary Islands"
204,"Morocco"
205,"Ceuta and Mellila"
208,"Algeria"
212,"Tunisia"
216,"Libya"
220,"Egypt"
224,"Sudan"
225,"South Sudan"
228,"Mauritania"
229,"Western Sahara"
232,"Mali"
236,"Burkina Faso"
240,"Niger"
244,"Chad"
247,"Cape Verde"
248,"Senegal"
252,"Gambia"
257,"Guinea-Bissau"
260,"Guinea"
264,"Sierra Leone"
268,"Liberia"
272,"Côte d'Ivoire"
276,"Ghana"
280,"Togo"
284,"Benin"
288,"Nigeria"
302,"Cameroon"
306,"Central African Republic"
310,"Equatorial Guinea"
311,"Sao Tome and Principe"
314,"Gabon"
318,"Congo"
322,"Congo, Democratic Republic of"
324,"Rwanda"
328,"Burundi"
329,"St Helena, Ascension and Tristan da Cunha"
330,"Angola"
334,"Ethiopia"
336,"Eritrea"
338,"Djibouti"
342,"Somalia"
346,"Kenya"
350,"Uganda"
352,"Tanzania"
355,"Seychelles"
357,"British Indian Ocean Territory"
366,"Mozambique"
370,"Madagascar"
372,"Reunion"
373,"Mauritius"
375,"Comoros"
376,"Comoros"
377,"Mayotte"
378,"Zambia"
382,"Zimbabwe"
386,"Malawi"
388,"South Africa"
389,"Namibia"
390,"South Africa"
391,"Botswana"
393,"Swaziland"
395,"Lesotho"
400,"United States"
404,"Canada"
406,"Greenland"
408,"St Pierre and Miquelon"
412,"Mexico"
413,"Bermuda"
416,"Guatemala"
421,"Belize"
424,"Honduras"
428,"El Salvador"
432,"Nicaragua"
436,"Costa Rica"
440,"Panama"
442,"Panama"
444,"Panama Canal"
446,"Anguilla"
448,"Cuba"
449,"St Kitts and Nevis"
450,"West Indies"
451,"West Indies"
452,"Haiti"
453,"Bahamas"
454,"Turks and Caicos islands"
455,"West Indies"
456,"Dominican Republic"
457,"Virgin Islands, United States"
458,"Guadeloupe"
459,"Antigua and Barbuda"
460,"Dominica"
461,"British Virgin islands"
462,"Martinique"
463,"Cayman islands"
464,"Jamaica"
465,"St Lucia"
466,"Saint Barthélemy"
467,"St Vincent and the Grenadines"
468,"Virgin Islands, British"
469,"Barbados"
470,"Montserrat"
471,"West Indies"
472,"Trinidad and Tobago"
473,"Grenada"
474,"Aruba"
475,"Curaçao"
476,"Netherlands Antilles"
477,"Bonaire, Sint Eustatius and Saba"
478,"Netherlands Antilles"
479,"Sint Maarten (Dutch part)"
480,"Colombia"
484,"Venezuela, Bolivarian Republic of"
488,"Guyana"
492,"Suriname"
496,"French Guiana"
500,"Ecuador"
504,"Peru"
508,"Brazil"
512,"Chile"
516,"Bolivia"
520,"Paraguay"
524,"Uruguay"
528,"Argentina"
529,"Falkland Islands (Malvinas)"
600,"Cyprus"
604,"Lebanon"
608,"Syrian Arab Republic"
612,"Iraq"
616,"Iran, Islamic Republic of"
624,"Israel"
625,"Occupied palestinian Territory"
626,"Timor-Leste"
628,"Jordan"
632,"Saudi Arabia"
636,"Kuwait"
640,"Bahrain"
644,"Qatar"
647,"United Arab Emirates"
649,"Oman"
652,"North Yemen"
653,"Yemen"
656,"South Yemen"
660,"Afghanistan"
662,"Pakistan"
664,"India"
666,"Bangladesh"
667,"Maldives"
669,"Sri Lanka"
672,"Nepal"
675,"Bhutan"
676,"Myanmar"
680,"Thailand"
684,"Lao"
688,"Northern Viet Nam"
690,"Viet Nam"
692,"Southern Viet Nam"
696,"Cambodia"
700,"Indonesia"
701,"Malaysia"
703,"Bruneï Darussalam"
704,"Portuguese Timor"
706,"Singapore"
708,"Philippines"
716,"Mongolia"
720,"China"
724,"Korea, Democratic People's Republic of"
728,"Korea, Republic of"
732,"Japan"
736,"Taiwan"
740,"Hong Kong"
743,"Macao"
800,"Australia"
801,"Papua New Guinea"
802,"Australian Oceania"
803,"Nauru"
804,"New Zealand"
806,"Solomon Islands"
807,"Tuvalu"
808,"American Oceania"
809,"New Caledonia"
810,"American Oceania"
811,"Wallis and Futuna"
812,"Kiribati"
813,"Pitcairn"
814,"New Zealand Oceania"
815,"Fiji"
816,"Vanuatu"
817,"Tonga"
819,"Samoa"
820,"Northern Mariana Islands"
822,"French Polynesia"
823,"Micronesia, Federated States of"
824,"Marshall islands"
825,"Palau"
830,"American Samoa"
831,"Guam"
832,"United States Minor Outlying islands"
833,"Cocos Islands (or Keeling Islands)"
834,"Christmas Island"
835,"Heard Island and McDonald Islands"
836,"Norfolk Island"
837,"Cook Islands"
838,"Niue"
839,"Tokelau"
890,"Polar Region"
891,"Antarctica"
892,"Bouvet Island"
893,"South Georgia and South Sandwich Islands"
894,"French Southern Territories"
950,"Stores and Provisions"
951,"Stores and provisions within the framework of intra-EU trade"
952,"Stores and provisions within the framework of trade with third countries"
955,"High seas"
958,"Countries and territories not specified"
959,"Countries and territories not specified within the framework of intra-EU trade"
960,"Countries and territories not specified within the framework of trade with third countries"
975,"Secret, Intra"
976,"Secret, Extra"
977,"Countries and territories not specified for commercial or military reasons"
978,"Countries and territories not specified for commercial or military reasons in the framework of intra-EU trade"
979,"Countries and territories not specified for commercial or military reasons in the framework of trade with third countries"
