{
    "2010": {
        "name": "Brazil",
        "children": [
            {
                "name": "Oil palm fruit",
                "children": [
                    {
                        "name": "EU",
                        "weight": 77053540.0,
                        "yield": 121473.0,
                        "area": 634.3264758423683,
                        "area_percentage": 0.5960594586002333
                    },
                    {
                        "name": "other",
                        "weight": 12850076460.0,
                        "yield": 121473.0,
                        "area": 105785.67352415764,
                        "area_percentage": 99.40394054139978
                    }
                ]
            }
        ],
        "total_area": 106420.0
    },
    "2011": {
        "name": "Brazil",
        "children": [
            {
                "name": "Oil palm fruit",
                "children": [
                    {
                        "name": "EU",
                        "weight": 338641470.0,
                        "yield": 119288.0,
                        "area": 2838.8561297029037,
                        "area_percentage": 2.6025450400650016
                    },
                    {
                        "name": "other",
                        "weight": 12673278530.0,
                        "yield": 119288.0,
                        "area": 106241.14387029709,
                        "area_percentage": 97.39745495993499
                    }
                ]
            }
        ],
        "total_area": 109080.0
    },
    "2012": {
        "name": "Brazil",
        "children": [
            {
                "name": "Soybeans",
                "children": [
                    {
                        "name": "EU",
                        "weight": 57114943140.0,
                        "yield": 26366.0,
                        "area": 2166234.663581886,
                        "area_percentage": 8.673522666239867
                    },
                    {
                        "name": "other",
                        "weight": 601373626860.0,
                        "yield": 26366.0,
                        "area": 22809023.336418115,
                        "area_percentage": 91.32647733376014
                    }
                ]
            },
            {
                "name": "Oil palm fruit",
                "children": [
                    {
                        "name": "EU",
                        "weight": 69985450.0,
                        "yield": 109691.0,
                        "area": 638.0236300152246,
                        "area_percentage": 0.5639489371239887
                    },
                    {
                        "name": "other",
                        "weight": 12339934550.0,
                        "yield": 109691.0,
                        "area": 112496.97636998477,
                        "area_percentage": 99.436051062876
                    }
                ]
            }
        ],
        "total_area": 25088393.0
    },
    "2013": {
        "name": "Brazil",
        "children": [
            {
                "name": "Soybeans",
                "children": [
                    {
                        "name": "EU",
                        "weight": 49511652830.0,
                        "yield": 29285.0,
                        "area": 1690683.0401229297,
                        "area_percentage": 6.058346399644278
                    },
                    {
                        "name": "other",
                        "weight": 767733117170.0,
                        "yield": 29285.0,
                        "area": 26215991.95987707,
                        "area_percentage": 93.94165360035572
                    }
                ]
            },
            {
                "name": "Oil palm fruit",
                "children": [
                    {
                        "name": "EU",
                        "weight": 535861850.0,
                        "yield": 114773.0,
                        "area": 4668.8842323542995,
                        "area_percentage": 4.297771650346849
                    },
                    {
                        "name": "other",
                        "weight": 11932488150.0,
                        "yield": 114773.0,
                        "area": 103966.11576764571,
                        "area_percentage": 95.70222834965317
                    }
                ]
            }
        ],
        "total_area": 28015310.0
    },
    "2014": {
        "name": "Brazil",
        "children": [
            {
                "name": "Soybeans",
                "children": [
                    {
                        "name": "EU",
                        "weight": 59808095000.0,
                        "yield": 28659.0,
                        "area": 2086887.0162950556,
                        "area_percentage": 6.893384929699871
                    },
                    {
                        "name": "other",
                        "weight": 807797105000.0,
                        "yield": 28659.0,
                        "area": 28186875.983704943,
                        "area_percentage": 93.10661507030012
                    }
                ]
            },
            {
                "name": "Oil palm fruit",
                "children": [
                    {
                        "name": "EU",
                        "weight": 676646230.0,
                        "yield": 110136.0,
                        "area": 6143.733474976393,
                        "area_percentage": 4.854442177147728
                    },
                    {
                        "name": "other",
                        "weight": 13262083770.0,
                        "yield": 110136.0,
                        "area": 120415.2665250236,
                        "area_percentage": 95.14555782285227
                    }
                ]
            }
        ],
        "total_area": 30400322.0
    },
    "2001": {
        "name": "Brazil",
        "children": [
            {
                "name": "Oil palm fruit",
                "children": [
                    {
                        "name": "EU",
                        "weight": 280957000.0,
                        "yield": 91226.0,
                        "area": 3079.790849100037,
                        "area_percentage": 3.6388662615199645
                    },
                    {
                        "name": "other",
                        "weight": 7440013000.0,
                        "yield": 91226.0,
                        "area": 81556.20915089996,
                        "area_percentage": 96.36113373848004
                    }
                ]
            }
        ],
        "total_area": 84636.0
    },
    "2002": {
        "name": "Brazil",
        "children": [
            {
                "name": "Oil palm fruit",
                "children": [
                    {
                        "name": "EU",
                        "weight": 73762000.0,
                        "yield": 91611.0,
                        "area": 805.1653185752803,
                        "area_percentage": 1.0274814881707952
                    },
                    {
                        "name": "other",
                        "weight": 7105168000.0,
                        "yield": 91611.0,
                        "area": 77557.83468142472,
                        "area_percentage": 98.9725185118292
                    }
                ]
            }
        ],
        "total_area": 78363.0
    },
    "2004": {
        "name": "Brazil",
        "children": [
            {
                "name": "Oil palm fruit",
                "children": [
                    {
                        "name": "EU",
                        "weight": 54990000.0,
                        "yield": 103868.0,
                        "area": 529.421958639812,
                        "area_percentage": 0.6047633805942428
                    },
                    {
                        "name": "other",
                        "weight": 9037860000.0,
                        "yield": 103868.0,
                        "area": 87012.57804136019,
                        "area_percentage": 99.39523661940576
                    }
                ]
            }
        ],
        "total_area": 87542.0
    },
    "2005": {
        "name": "Brazil",
        "children": [
            {
                "name": "Oil palm fruit",
                "children": [
                    {
                        "name": "EU",
                        "weight": 469360000.0,
                        "yield": 102758.0,
                        "area": 4567.624905116876,
                        "area_percentage": 5.194910327116151
                    },
                    {
                        "name": "other",
                        "weight": 8565640000.0,
                        "yield": 102758.0,
                        "area": 83357.37509488313,
                        "area_percentage": 94.80508967288385
                    }
                ]
            }
        ],
        "total_area": 87925.0
    },
    "2006": {
        "name": "Brazil",
        "children": [
            {
                "name": "Oil palm fruit",
                "children": [
                    {
                        "name": "EU",
                        "weight": 120506000.0,
                        "yield": 125095.0,
                        "area": 963.3158799312522,
                        "area_percentage": 0.9981617050547122
                    },
                    {
                        "name": "other",
                        "weight": 11952254000.0,
                        "yield": 125095.0,
                        "area": 95545.68412006875,
                        "area_percentage": 99.00183829494529
                    }
                ]
            }
        ],
        "total_area": 96509.0
    },
    "2008": {
        "name": "Brazil",
        "children": [
            {
                "name": "Oil palm fruit",
                "children": [
                    {
                        "name": "EU",
                        "weight": 24791000.0,
                        "yield": 105770.0,
                        "area": 234.38593173867827,
                        "area_percentage": 0.2272106203480857
                    },
                    {
                        "name": "other",
                        "weight": 10886249000.0,
                        "yield": 105770.0,
                        "area": 102923.61406826132,
                        "area_percentage": 99.77278937965191
                    }
                ]
            }
        ],
        "total_area": 103158.0
    },
    "2009": {
        "name": "Brazil",
        "children": [
            {
                "name": "Oil palm fruit",
                "children": [
                    {
                        "name": "EU",
                        "weight": 176133000.0,
                        "yield": 108023.0,
                        "area": 1630.513872045768,
                        "area_percentage": 1.5692503388183017
                    },
                    {
                        "name": "other",
                        "weight": 11047857000.0,
                        "yield": 108023.0,
                        "area": 102273.48612795424,
                        "area_percentage": 98.43074966118171
                    }
                ]
            }
        ],
        "total_area": 103904.0
    },
    "2015": {
        "name": "Brazil",
        "children": [
            {
                "name": "Soybeans",
                "children": [
                    {
                        "name": "EU",
                        "weight": 56912168510.0,
                        "yield": 30286.0,
                        "area": 1879157.6474278544,
                        "area_percentage": 5.839294794883636
                    },
                    {
                        "name": "other",
                        "weight": 917737191490.0,
                        "yield": 30286.0,
                        "area": 30302085.352572147,
                        "area_percentage": 94.16070520511637
                    }
                ]
            },
            {
                "name": "Oil palm fruit",
                "children": [
                    {
                        "name": "EU",
                        "weight": 879077060.0,
                        "yield": 113154.0,
                        "area": 7768.855365254432,
                        "area_percentage": 5.545934070940187
                    },
                    {
                        "name": "other",
                        "weight": 14971802940.0,
                        "yield": 113154.0,
                        "area": 132313.14463474558,
                        "area_percentage": 94.45406592905982
                    }
                ]
            }
        ],
        "total_area": 32321325.0
    },
    "2016": {
        "name": "Brazil",
        "children": [
            {
                "name": "Soybeans",
                "children": [
                    {
                        "name": "EU",
                        "weight": 56791650110.0,
                        "yield": 29049.0,
                        "area": 1955029.4368136597,
                        "area_percentage": 5.891638567229499
                    },
                    {
                        "name": "other",
                        "weight": 907156549890.0,
                        "yield": 29049.0,
                        "area": 31228089.56318634,
                        "area_percentage": 94.10836143277051
                    }
                ]
            },
            {
                "name": "Oil palm fruit",
                "children": [
                    {
                        "name": "EU",
                        "weight": 351229800.0,
                        "yield": 119592.0,
                        "area": 2936.9004615693357,
                        "area_percentage": 2.1667186501773092
                    },
                    {
                        "name": "other",
                        "weight": 15858940200.0,
                        "yield": 119592.0,
                        "area": 132609.09953843066,
                        "area_percentage": 97.83328134982268
                    }
                ]
            }
        ],
        "total_area": 33318665.0
    },
    "2017": {
        "name": "Brazil",
        "children": [
            {
                "name": "Soybeans",
                "children": [
                    {
                        "name": "EU",
                        "weight": 50667981250.0,
                        "yield": 33785.0,
                        "area": 1499718.255142815,
                        "area_percentage": 4.416147228153595
                    },
                    {
                        "name": "other",
                        "weight": 1096653028750.0,
                        "yield": 33785.0,
                        "area": 32460160.744857185,
                        "area_percentage": 95.5838527718464
                    }
                ]
            },
            {
                "name": "Oil palm fruit",
                "children": [
                    {
                        "name": "EU",
                        "weight": 228097750.0,
                        "yield": 146558.0,
                        "area": 1556.365056837566,
                        "area_percentage": 1.3517975357521874
                    },
                    {
                        "name": "other",
                        "weight": 16645612250.0,
                        "yield": 146558.0,
                        "area": 113576.63494316244,
                        "area_percentage": 98.64820246424782
                    }
                ]
            }
        ],
        "total_area": 34075012.0
    },
    "2018": {
        "name": "Brazil",
        "children": [
            {
                "name": "Soybeans",
                "children": [
                    {
                        "name": "EU",
                        "weight": 54094041350.0,
                        "yield": 33904.0,
                        "area": 1595506.1747876357,
                        "area_percentage": 4.587696563670816
                    },
                    {
                        "name": "other",
                        "weight": 1125030458650.0,
                        "yield": 33904.0,
                        "area": 33182429.825212363,
                        "area_percentage": 95.41230343632918
                    }
                ]
            },
            {
                "name": "Oil palm fruit",
                "children": [
                    {
                        "name": "EU",
                        "weight": 211126450.0,
                        "yield": 139255.0,
                        "area": 1516.1139635919715,
                        "area_percentage": 0.9384332336324859
                    },
                    {
                        "name": "other",
                        "weight": 22286573550.0,
                        "yield": 139255.0,
                        "area": 160041.88603640802,
                        "area_percentage": 99.0615667663675
                    }
                ]
            }
        ],
        "total_area": 34939494.0
    },
    "2019": {
        "name": "Brazil",
        "children": [
            {
                "name": "Soybeans",
                "children": [
                    {
                        "name": "EU",
                        "weight": 50857411400.0,
                        "yield": 31846.0,
                        "area": 1596979.5704327074,
                        "area_percentage": 4.45071117235798
                    },
                    {
                        "name": "other",
                        "weight": 1091836508600.0,
                        "yield": 31846.0,
                        "area": 34284467.42956729,
                        "area_percentage": 95.54928882764202
                    }
                ]
            },
            {
                "name": "Oil palm fruit",
                "children": [
                    {
                        "name": "EU",
                        "weight": 75226560.0,
                        "yield": 145558.0,
                        "area": 516.8150153203534,
                        "area_percentage": 0.29120440361761
                    },
                    {
                        "name": "other",
                        "weight": 25757703440.0,
                        "yield": 145558.0,
                        "area": 176958.18498467965,
                        "area_percentage": 99.70879559638239
                    }
                ]
            }
        ],
        "total_area": 36058922.0
    }
}