{
    "name": "France",
    "children": [
        {
            "name": "Frozen bovine cuts, with bone in (excl. carcases and half-carcases, \"compensated\" quarters, forequarters and hindquarters)",
            "children": [
                {
                    "name": "Switzerland",
                    "trade_value": "16532",
                    "weight": "1000"
                },
                {
                    "name": "Brazil",
                    "trade_value": "31266",
                    "weight": "8600"
                },
                {
                    "name": "Uruguay",
                    "trade_value": "10966",
                    "weight": "3200"
                },
                {
                    "name": "United Arab Emirates",
                    "trade_value": "9531",
                    "weight": "7900"
                },
                {
                    "name": "Japan",
                    "trade_value": "13263",
                    "weight": "1400"
                }
            ]
        },
        {
            "name": "Fresh or chilled sheep short forequarters",
            "children": [
                {
                    "name": "Switzerland",
                    "trade_value": "3877",
                    "weight": "400"
                },
                {
                    "name": "New Zealand",
                    "trade_value": "557784",
                    "weight": "181200"
                }
            ]
        },
        {
            "name": "Fresh or chilled goat carcases and half-carcases",
            "children": [
                {
                    "name": "Switzerland",
                    "trade_value": "26536",
                    "weight": "3200"
                },
                {
                    "name": "New Zealand",
                    "trade_value": "95883",
                    "weight": "13700"
                }
            ]
        },
        {
            "name": "Frozen edible bovine tongues",
            "children": [
                {
                    "name": "Switzerland",
                    "trade_value": "765",
                    "weight": "300"
                },
                {
                    "name": "Uruguay",
                    "trade_value": "7003",
                    "weight": "1100"
                },
                {
                    "name": "New Zealand",
                    "trade_value": "185587",
                    "weight": "79300"
                }
            ]
        },
        {
            "name": "Frozen edible bovine offal (excl. for manufacture of pharmaceutical products, tongues, livers and thick and thin skirt)",
            "children": [
                {
                    "name": "Switzerland",
                    "trade_value": "6610",
                    "weight": "1800"
                },
                {
                    "name": "Chile",
                    "trade_value": "2949",
                    "weight": "400"
                },
                {
                    "name": "Uruguay",
                    "trade_value": "59452",
                    "weight": "45700"
                },
                {
                    "name": "Hong Kong",
                    "trade_value": "38708",
                    "weight": "25600"
                },
                {
                    "name": "New Zealand",
                    "trade_value": "950202",
                    "weight": "522400"
                }
            ]
        },
        {
            "name": "Fresh or chilled boneless cuts of turkeys of the species domesticus",
            "children": [
                {
                    "name": "Switzerland",
                    "trade_value": "123050",
                    "weight": "4900"
                }
            ]
        },
        {
            "name": "Meat and edible offal, fresh, chilled or frozen (excl. bovine animals, swine, sheep, goats, horses, asses, mules, hinnies, poultry \"fowls of the species Gallus domesticus\", ducks, geese, turkeys, guinea fowls, rabbits, hares, pigeons, game, whales, seals, reindeer and frogs' legs)",
            "children": [
                {
                    "name": "Switzerland",
                    "trade_value": "19440",
                    "weight": "300"
                },
                {
                    "name": "South Africa",
                    "trade_value": "13774",
                    "weight": "1200"
                },
                {
                    "name": "Canada",
                    "trade_value": "1806",
                    "weight": "100"
                },
                {
                    "name": "Israel",
                    "trade_value": "5520",
                    "weight": "800"
                },
                {
                    "name": "New Zealand",
                    "trade_value": "37140",
                    "weight": "7500"
                },
                {
                    "name": "New Caledonia",
                    "trade_value": "762",
                    "weight": "300"
                }
            ]
        },
        {
            "name": "Bellies \"streaky\" and cuts thereof of domestic swine, dried or smoked",
            "children": [
                {
                    "name": "Switzerland",
                    "trade_value": "2139",
                    "weight": "200"
                }
            ]
        },
        {
            "name": "Boneless meat of bovine animals, salted, in brine, dried or smoked",
            "children": [
                {
                    "name": "Switzerland",
                    "trade_value": "9247763",
                    "weight": "735300"
                },
                {
                    "name": "Brazil",
                    "trade_value": "28558",
                    "weight": "5100"
                },
                {
                    "name": "Australia",
                    "trade_value": "104490",
                    "weight": "15100"
                }
            ]
        },
        {
            "name": "Edible flours and meals of meat or meat offal",
            "children": [
                {
                    "name": "Switzerland",
                    "trade_value": "19284",
                    "weight": "1200"
                }
            ]
        },
        {
            "name": "Fresh, chilled or frozen frogs' legs",
            "children": [
                {
                    "name": "Turkey",
                    "trade_value": "346128",
                    "weight": "74900"
                },
                {
                    "name": "Indonesia",
                    "trade_value": "4573079",
                    "weight": "1038300"
                },
                {
                    "name": "China",
                    "trade_value": "47540",
                    "weight": "17500"
                }
            ]
        },
        {
            "name": "Frozen bovine boneless meat (excl. forequarters, whole or cut into a maximum of five pieces, each quarter being in a single block \"compensated\" quarters in two blocks, one of which contains the forequarter, whole or cut into a maximum of five pieces, and the other, the hindquarter, excl. the tenderloin, in one piece, crop, chuck and blade and brisket cuts)",
            "children": [
                {
                    "name": "Russian Federation",
                    "trade_value": "45003",
                    "weight": "28300"
                },
                {
                    "name": "Russian Federation",
                    "trade_value": "25515",
                    "weight": "21900"
                },
                {
                    "name": "Zimbabwe",
                    "trade_value": "69217",
                    "weight": "13300"
                },
                {
                    "name": "Namibia",
                    "trade_value": "242549",
                    "weight": "95200"
                },
                {
                    "name": "Botswana",
                    "trade_value": "183581",
                    "weight": "71500"
                },
                {
                    "name": "Canada",
                    "trade_value": "609749",
                    "weight": "165200"
                },
                {
                    "name": "Brazil",
                    "trade_value": "2651875",
                    "weight": "618100"
                },
                {
                    "name": "Brazil",
                    "trade_value": "225041",
                    "weight": "142400"
                },
                {
                    "name": "Uruguay",
                    "trade_value": "2051823",
                    "weight": "565100"
                },
                {
                    "name": "Uruguay",
                    "trade_value": "26274",
                    "weight": "15600"
                },
                {
                    "name": "Argentina",
                    "trade_value": "3615637",
                    "weight": "857400"
                },
                {
                    "name": "New Zealand",
                    "trade_value": "725667",
                    "weight": "211900"
                }
            ]
        },
        {
            "name": "Frozen meat of domestic swine, with bone in (excl. carcases and half-carcases, hams, shoulders and cuts thereof, and fore-ends, loins, bellies and cuts thereof)",
            "children": [
                {
                    "name": "Serbia and Montenegro",
                    "trade_value": "20484",
                    "weight": "19800"
                },
                {
                    "name": "Singapore",
                    "trade_value": "16465",
                    "weight": "24500"
                },
                {
                    "name": "Korea, Republic of",
                    "trade_value": "172367",
                    "weight": "57500"
                },
                {
                    "name": "Japan",
                    "trade_value": "1240322",
                    "weight": "402900"
                },
                {
                    "name": "Hong Kong",
                    "trade_value": "28009",
                    "weight": "47600"
                }
            ]
        },
        {
            "name": "Frozen boneless cuts of turkeys of the species domesticus",
            "children": [
                {
                    "name": "Morocco",
                    "trade_value": "41435",
                    "weight": "66100"
                }
            ]
        },
        {
            "name": "Fresh, chilled or frozen meat and edible meat offal of game (excl. rabbits, hares, pigs and quails)",
            "children": [
                {
                    "name": "Tunisia",
                    "trade_value": "99452",
                    "weight": "13900"
                },
                {
                    "name": "Zimbabwe",
                    "trade_value": "285316",
                    "weight": "29300"
                },
                {
                    "name": "South Africa",
                    "trade_value": "7896569",
                    "weight": "979300"
                },
                {
                    "name": "United States",
                    "trade_value": "182264",
                    "weight": "24600"
                },
                {
                    "name": "Canada",
                    "trade_value": "61693",
                    "weight": "8000"
                },
                {
                    "name": "Israel",
                    "trade_value": "3552520",
                    "weight": "420700"
                },
                {
                    "name": "Australia",
                    "trade_value": "6038097",
                    "weight": "1261500"
                },
                {
                    "name": "New Zealand",
                    "trade_value": "11649912",
                    "weight": "1711800"
                },
                {
                    "name": "New Caledonia",
                    "trade_value": "649345",
                    "weight": "83100"
                }
            ]
        },
        {
            "name": "Meat, salted, in brine, dried or smoked (excl. of swine, bovine animals, reindeer, sheep or goats, and horse meat, salted, in brine or dried)",
            "children": [
                {
                    "name": "Egypt",
                    "trade_value": "802",
                    "weight": "100"
                },
                {
                    "name": "Thailand",
                    "trade_value": "1272210",
                    "weight": "478600"
                }
            ]
        },
        {
            "name": "Frozen unseparated or separated bovine forequarters, with bone in",
            "children": [
                {
                    "name": "Mayotte",
                    "trade_value": "51250",
                    "weight": "39700"
                }
            ]
        },
        {
            "name": "Fresh or chilled meat of horses",
            "children": [
                {
                    "name": "South Africa",
                    "trade_value": "331699",
                    "weight": "66100"
                },
                {
                    "name": "United States",
                    "trade_value": "17433241",
                    "weight": "3805400"
                },
                {
                    "name": "Canada",
                    "trade_value": "13493697",
                    "weight": "3123800"
                },
                {
                    "name": "Brazil",
                    "trade_value": "4897245",
                    "weight": "884600"
                },
                {
                    "name": "Uruguay",
                    "trade_value": "4939609",
                    "weight": "859900"
                },
                {
                    "name": "Argentina",
                    "trade_value": "10638967",
                    "weight": "2122900"
                },
                {
                    "name": "Malaysia",
                    "trade_value": "51932",
                    "weight": "9400"
                },
                {
                    "name": "Singapore",
                    "trade_value": "14580",
                    "weight": "3500"
                },
                {
                    "name": "Australia",
                    "trade_value": "3163398",
                    "weight": "516400"
                },
                {
                    "name": "New Zealand",
                    "trade_value": "235807",
                    "weight": "35000"
                }
            ]
        },
        {
            "name": "Frozen meat of horses",
            "children": [
                {
                    "name": "South Africa",
                    "trade_value": "1958",
                    "weight": "100"
                },
                {
                    "name": "United States",
                    "trade_value": "7094",
                    "weight": "1900"
                },
                {
                    "name": "Canada",
                    "trade_value": "1005",
                    "weight": "100"
                },
                {
                    "name": "Australia",
                    "trade_value": "103682",
                    "weight": "19000"
                },
                {
                    "name": "New Zealand",
                    "trade_value": "24317",
                    "weight": "11800"
                }
            ]
        },
        {
            "name": "Fresh or chilled edible offal of horses, asses, mules and hinnies (excl. for manufacture of pharmaceutical products)",
            "children": [
                {
                    "name": "South Africa",
                    "trade_value": "1577",
                    "weight": "300"
                },
                {
                    "name": "United States",
                    "trade_value": "222624",
                    "weight": "44500"
                },
                {
                    "name": "Canada",
                    "trade_value": "168186",
                    "weight": "33900"
                },
                {
                    "name": "Brazil",
                    "trade_value": "67491",
                    "weight": "13700"
                },
                {
                    "name": "Uruguay",
                    "trade_value": "49200",
                    "weight": "11600"
                },
                {
                    "name": "Argentina",
                    "trade_value": "134968",
                    "weight": "53000"
                },
                {
                    "name": "Australia",
                    "trade_value": "26574",
                    "weight": "6000"
                }
            ]
        },
        {
            "name": "Fresh or chilled bovine meat, boneless",
            "children": [
                {
                    "name": "Namibia",
                    "trade_value": "2589060",
                    "weight": "456300"
                },
                {
                    "name": "Botswana",
                    "trade_value": "2567566",
                    "weight": "440800"
                },
                {
                    "name": "Canada",
                    "trade_value": "2328109",
                    "weight": "271600"
                },
                {
                    "name": "Brazil",
                    "trade_value": "8833732",
                    "weight": "1840300"
                },
                {
                    "name": "Paraguay",
                    "trade_value": "36098",
                    "weight": "5300"
                },
                {
                    "name": "Uruguay",
                    "trade_value": "250295",
                    "weight": "45800"
                },
                {
                    "name": "Argentina",
                    "trade_value": "477013",
                    "weight": "71800"
                },
                {
                    "name": "Australia",
                    "trade_value": "178030",
                    "weight": "15700"
                },
                {
                    "name": "New Zealand",
                    "trade_value": "6012",
                    "weight": "800"
                }
            ]
        },
        {
            "name": "Fresh or chilled meat of non-domestic swine (excl. carcases and half-carcases, hams, shoulders and cuts thereof, with bone in)",
            "children": [
                {
                    "name": "United States",
                    "trade_value": "592040",
                    "weight": "72500"
                }
            ]
        },
        {
            "name": "Frozen meat of non-domestic swine (excl. carcases and half-carcases and hams, shoulders and cuts thereof, with bone in)",
            "children": [
                {
                    "name": "United States",
                    "trade_value": "117337",
                    "weight": "19100"
                },
                {
                    "name": "Japan",
                    "trade_value": "56026",
                    "weight": "23800"
                },
                {
                    "name": "Australia",
                    "trade_value": "4970592",
                    "weight": "1052800"
                },
                {
                    "name": "New Zealand",
                    "trade_value": "68405",
                    "weight": "14500"
                }
            ]
        },
        {
            "name": "Frozen edible offal of ducks, geese and guinea fowls of the species domesticus (excl. livers)",
            "children": [
                {
                    "name": "United States",
                    "trade_value": "2025",
                    "weight": "100"
                }
            ]
        },
        {
            "name": "Domestic swine hams and cuts thereof, dried or smoked, with bone in",
            "children": [
                {
                    "name": "United States",
                    "trade_value": "26142",
                    "weight": "5200"
                }
            ]
        },
        {
            "name": "Domestic swine shoulders and cuts thereof, dried or smoked, with bone in",
            "children": [
                {
                    "name": "United States",
                    "trade_value": "138867",
                    "weight": "28300"
                }
            ]
        },
        {
            "name": "Unseparated or separated hindquarters of bovine animals, with bone in, fresh or chilled",
            "children": [
                {
                    "name": "Canada",
                    "trade_value": "10569",
                    "weight": "1900"
                }
            ]
        },
        {
            "name": "Frozen edible bovine livers",
            "children": [
                {
                    "name": "Canada",
                    "trade_value": "5611",
                    "weight": "6900"
                },
                {
                    "name": "Uruguay",
                    "trade_value": "4917",
                    "weight": "4000"
                },
                {
                    "name": "Israel",
                    "trade_value": "14746",
                    "weight": "6900"
                },
                {
                    "name": "New Zealand",
                    "trade_value": "39596",
                    "weight": "28000"
                }
            ]
        },
        {
            "name": "Frozen edible bovine offal for manufacture of pharmaceutical products (excl. tongues and livers)",
            "children": [
                {
                    "name": "Canada",
                    "trade_value": "6166",
                    "weight": "7000"
                },
                {
                    "name": "Brazil",
                    "trade_value": "49185",
                    "weight": "55100"
                },
                {
                    "name": "New Zealand",
                    "trade_value": "68613",
                    "weight": "44500"
                }
            ]
        },
        {
            "name": "Frozen edible livers of domestic swine",
            "children": [
                {
                    "name": "Canada",
                    "trade_value": "33164",
                    "weight": "45000"
                }
            ]
        },
        {
            "name": "Frozen edible bovine thick and thin skirt (excl. for manufacture of pharmaceutical products)",
            "children": [
                {
                    "name": "Brazil",
                    "trade_value": "163069",
                    "weight": "80800"
                },
                {
                    "name": "Argentina",
                    "trade_value": "65714",
                    "weight": "12700"
                }
            ]
        },
        {
            "name": "Frozen boneless cuts of fowls of the species Gallus domesticus",
            "children": [
                {
                    "name": "Brazil",
                    "trade_value": "23350",
                    "weight": "12200"
                },
                {
                    "name": "Brazil",
                    "trade_value": "2005176",
                    "weight": "913700"
                },
                {
                    "name": "Israel",
                    "trade_value": "222303",
                    "weight": "45400"
                },
                {
                    "name": "Thailand",
                    "trade_value": "1330613",
                    "weight": "494600"
                }
            ]
        },
        {
            "name": "Fresh or chilled sheep chines and/or best ends",
            "children": [
                {
                    "name": "Chile",
                    "trade_value": "32764",
                    "weight": "4900"
                },
                {
                    "name": "Australia",
                    "trade_value": "703244",
                    "weight": "108000"
                },
                {
                    "name": "New Zealand",
                    "trade_value": "5250699",
                    "weight": "914500"
                }
            ]
        },
        {
            "name": "Fresh or chilled boneless cuts of sheep, with bone in (excl. carcases and half-carcases, short forequarters, chines and/or best ends, and legs)",
            "children": [
                {
                    "name": "Chile",
                    "trade_value": "139857",
                    "weight": "31700"
                },
                {
                    "name": "Uruguay",
                    "trade_value": "8765",
                    "weight": "2500"
                },
                {
                    "name": "Australia",
                    "trade_value": "8995128",
                    "weight": "1915100"
                },
                {
                    "name": "New Zealand",
                    "trade_value": "26217618",
                    "weight": "5826900"
                }
            ]
        },
        {
            "name": "Fresh or chilled boneless cuts of sheep",
            "children": [
                {
                    "name": "Chile",
                    "trade_value": "180706",
                    "weight": "27600"
                },
                {
                    "name": "Uruguay",
                    "trade_value": "517736",
                    "weight": "125700"
                },
                {
                    "name": "Australia",
                    "trade_value": "1439",
                    "weight": "100"
                },
                {
                    "name": "New Zealand",
                    "trade_value": "2778105",
                    "weight": "626700"
                }
            ]
        },
        {
            "name": "Frozen lamb carcases and half-carcases",
            "children": [
                {
                    "name": "Chile",
                    "trade_value": "16606",
                    "weight": "5600"
                },
                {
                    "name": "New Zealand",
                    "trade_value": "1210102",
                    "weight": "409300"
                }
            ]
        },
        {
            "name": "Frozen sheep chines and/or best ends",
            "children": [
                {
                    "name": "Chile",
                    "trade_value": "92331",
                    "weight": "27300"
                },
                {
                    "name": "Uruguay",
                    "trade_value": "244895",
                    "weight": "74700"
                },
                {
                    "name": "Australia",
                    "trade_value": "81124",
                    "weight": "33100"
                },
                {
                    "name": "New Zealand",
                    "trade_value": "4510412",
                    "weight": "724700"
                }
            ]
        },
        {
            "name": "Frozen cuts of sheep, with bone in (excl. carcases and half-carcases, short forequarters, chines and/or best ends, and legs)",
            "children": [
                {
                    "name": "Chile",
                    "trade_value": "748505",
                    "weight": "225000"
                },
                {
                    "name": "Uruguay",
                    "trade_value": "347182",
                    "weight": "112500"
                },
                {
                    "name": "Australia",
                    "trade_value": "277175",
                    "weight": "103800"
                },
                {
                    "name": "New Zealand",
                    "trade_value": "34783403",
                    "weight": "10026800"
                }
            ]
        },
        {
            "name": "Frozen meat of lambs, boneless, frozen",
            "children": [
                {
                    "name": "Chile",
                    "trade_value": "394810",
                    "weight": "99400"
                },
                {
                    "name": "Uruguay",
                    "trade_value": "1186754",
                    "weight": "345500"
                },
                {
                    "name": "New Zealand",
                    "trade_value": "16440340",
                    "weight": "4237600"
                }
            ]
        },
        {
            "name": "Frozen meat of sheep, boneless (excl. lamb)",
            "children": [
                {
                    "name": "Chile",
                    "trade_value": "10014",
                    "weight": "2800"
                },
                {
                    "name": "Uruguay",
                    "trade_value": "40387",
                    "weight": "11100"
                },
                {
                    "name": "New Zealand",
                    "trade_value": "4524801",
                    "weight": "2150400"
                }
            ]
        },
        {
            "name": "Frozen sheep legs",
            "children": [
                {
                    "name": "Uruguay",
                    "trade_value": "93205",
                    "weight": "25800"
                },
                {
                    "name": "Australia",
                    "trade_value": "1630002",
                    "weight": "486000"
                }
            ]
        },
        {
            "name": "Fresh, chilled or frozen meat and edible offal of non-domestic rabbits and hares",
            "children": [
                {
                    "name": "Argentina",
                    "trade_value": "2220396",
                    "weight": "357600"
                }
            ]
        },
        {
            "name": "Fresh or chilled, plucked and drawn fowls of species Gallus domesticus, without heads, feet, necks, hearts, livers and gizzards, known as \"65% chickens\", and other forms of fresh or chilled fowl, not cut in pieces (excl. \"83% and 70% chickens\")",
            "children": [
                {
                    "name": "Israel",
                    "trade_value": "10013",
                    "weight": "4200"
                }
            ]
        },
        {
            "name": "Frozen fowls of species Gallus domesticus, plucked and drawn, without heads, feet, necks, hearts, livers and gizzards, known as \"65% chickens\", and other forms of fowl, not cut in pieces (excl. \"70% chickens\")",
            "children": [
                {
                    "name": "Israel",
                    "trade_value": "118284",
                    "weight": "48500"
                }
            ]
        },
        {
            "name": "Fresh or chilled legs and cuts thereof of fowls of the species Gallus domesticus, with bone in",
            "children": [
                {
                    "name": "Israel",
                    "trade_value": "17376",
                    "weight": "4900"
                }
            ]
        },
        {
            "name": "Frozen legs and cuts thereof of fowls of the species Gallus domesticus, with bone in",
            "children": [
                {
                    "name": "Israel",
                    "trade_value": "180095",
                    "weight": "56000"
                }
            ]
        },
        {
            "name": "Frozen cuts of fowls of the species Gallus domesticus, with bone in (excl. halves or quarters, whole wings, with or without tips, backs, necks, backs with necks attached, rumps and wing-tips, breasts, legs and cuts thereof)",
            "children": [
                {
                    "name": "Israel",
                    "trade_value": "3050",
                    "weight": "800"
                }
            ]
        },
        {
            "name": "Frozen boneless cuts of ducks and guinea fowls of the species domesticus",
            "children": [
                {
                    "name": "Thailand",
                    "trade_value": "528968",
                    "weight": "200500"
                },
                {
                    "name": "China",
                    "trade_value": "150150",
                    "weight": "47900"
                }
            ]
        },
        {
            "name": "Frozen breasts and cuts thereof of ducks and guinea fowls of the species domesticus, with bone in",
            "children": [
                {
                    "name": "Thailand",
                    "trade_value": "14754",
                    "weight": "7000"
                }
            ]
        },
        {
            "name": "Frozen legs and cuts thereof of ducks and guinea fowls of the species domesticus, with bone in",
            "children": [
                {
                    "name": "Thailand",
                    "trade_value": "61306",
                    "weight": "27900"
                }
            ]
        },
        {
            "name": "Frozen edible livers of ducks, geese or guinea fowls of the species domesticus (excl. fatty livers)",
            "children": [
                {
                    "name": "Thailand",
                    "trade_value": "240820",
                    "weight": "233800"
                }
            ]
        },
        {
            "name": "Frozen bellies \"streaky\" and cuts thereof of domestic swine",
            "children": [
                {
                    "name": "Philippines",
                    "trade_value": "38334",
                    "weight": "23600"
                },
                {
                    "name": "Korea, Republic of",
                    "trade_value": "223101",
                    "weight": "88100"
                },
                {
                    "name": "Japan",
                    "trade_value": "2786071",
                    "weight": "712100"
                }
            ]
        },
        {
            "name": "Frozen edible offal of domestic swine (excl. livers)",
            "children": [
                {
                    "name": "China",
                    "trade_value": "53357",
                    "weight": "50000"
                },
                {
                    "name": "Japan",
                    "trade_value": "43697",
                    "weight": "41300"
                },
                {
                    "name": "Hong Kong",
                    "trade_value": "41218",
                    "weight": "47300"
                }
            ]
        },
        {
            "name": "Frozen meat and edible meat offal of domestic rabbits",
            "children": [
                {
                    "name": "China",
                    "trade_value": "9142862",
                    "weight": "4138600"
                }
            ]
        },
        {
            "name": "Frozen boneless meat of domestic swine (excl. bellies and cuts thereof)",
            "children": [
                {
                    "name": "Korea, Republic of",
                    "trade_value": "362836",
                    "weight": "134400"
                },
                {
                    "name": "Japan",
                    "trade_value": "3098974",
                    "weight": "725800"
                }
            ]
        },
        {
            "name": "Frozen fore-ends and cuts thereof of domestic swine",
            "children": [
                {
                    "name": "Japan",
                    "trade_value": "74231",
                    "weight": "24000"
                }
            ]
        },
        {
            "name": "Frozen loins and cuts thereof of domestic swine, with bone in",
            "children": [
                {
                    "name": "Japan",
                    "trade_value": "344614",
                    "weight": "74500"
                }
            ]
        },
        {
            "name": "Frozen edible offal of non-domestic swine (excl. livers)",
            "children": [
                {
                    "name": "Japan",
                    "trade_value": "26969",
                    "weight": "12000"
                }
            ]
        },
        {
            "name": "Fresh or chilled lamb carcases and half-carcases",
            "children": [
                {
                    "name": "Australia",
                    "trade_value": "3133",
                    "weight": "400"
                },
                {
                    "name": "New Zealand",
                    "trade_value": "332253",
                    "weight": "68100"
                }
            ]
        },
        {
            "name": "Frozen edible offal of sheep and goats (excl. for manufacture of pharmaceutical products)",
            "children": [
                {
                    "name": "Australia",
                    "trade_value": "48297",
                    "weight": "13200"
                },
                {
                    "name": "New Zealand",
                    "trade_value": "704608",
                    "weight": "159200"
                }
            ]
        },
        {
            "name": "Fresh or chilled sheep carcases and half-carcases (excl. lambs)",
            "children": [
                {
                    "name": "New Zealand",
                    "trade_value": "8049",
                    "weight": "1100"
                }
            ]
        },
        {
            "name": "Fresh or chilled sheep legs",
            "children": [
                {
                    "name": "New Zealand",
                    "trade_value": "2951231",
                    "weight": "601200"
                }
            ]
        },
        {
            "name": "Frozen sheep carcases and half-carcases (excl. lambs)",
            "children": [
                {
                    "name": "New Zealand",
                    "trade_value": "116506",
                    "weight": "42100"
                }
            ]
        },
        {
            "name": "Frozen goat carcases and half-carcases",
            "children": [
                {
                    "name": "New Zealand",
                    "trade_value": "1382485",
                    "weight": "404400"
                }
            ]
        },
        {
            "name": "Frozen cuts of goat, with bone in (excl. carcases and half-carcases, short forequarters, chines and/or best ends, and legs)",
            "children": [
                {
                    "name": "New Zealand",
                    "trade_value": "296617",
                    "weight": "74800"
                }
            ]
        },
        {
            "name": "Frozen boneless cuts of goat",
            "children": [
                {
                    "name": "New Zealand",
                    "trade_value": "246708",
                    "weight": "53000"
                }
            ]
        },
        {
            "name": "Fresh or chilled edible bovine offal (excl. for manufacture of pharmaceutical products, livers and thick and thin skirt)",
            "children": [
                {
                    "name": "New Zealand",
                    "trade_value": "41426",
                    "weight": "15500"
                }
            ]
        },
        {
            "name": "Fresh, chilled or frozen domestic pigeon meat and edible offal",
            "children": [
                {
                    "name": "New Zealand",
                    "trade_value": "1037",
                    "weight": "2000"
                }
            ]
        },
        {
            "name": "Fresh, chilled or frozen reindeer meat and edible offal thereof",
            "children": [
                {
                    "name": "New Zealand",
                    "trade_value": "128913",
                    "weight": "12300"
                }
            ]
        }
    ]
}