product_2,total_value,value,value_percentage
Bananas,4568345.8,80142.2,1.754293643883088
"Beans, dry",4568345.8,210480.4,4.607365755893523
Cassava,4568345.8,238580.2,5.222463676020323
"Cocoa, beans",4568345.8,494000.0,10.813542179753556
"Coffee, green",4568345.8,172600.0,3.7781728344645016
"Cow peas, dry",4568345.8,106636.2,2.3342409849972388
Cucumbers and gherkins,4568345.8,113055.6,2.474760119954142
"Groundnuts, with shell",4568345.8,284942.8,6.237329932423242
Kola nuts,4568345.8,95208.4,2.084089168556373
Maize,4568345.8,583427.6,12.771091015045313
Melonseed,4568345.8,103827.4,2.272757022903126
Oil palm fruit,4568345.8,70011.8,1.5325416040090487
Others,4568345.8,442485.2,9.685895494163336
Plantains and others,4568345.8,234744.8,5.138507684772899
"Pumpkins, squash and gourds",4568345.8,114644.4,2.5095385730213327
"Rice, paddy",4568345.8,55103.2,1.2061959057477654
Seed cotton,4568345.8,175894.2,3.8502820867894902
Sorghum,4568345.8,572347.2,12.52854370174867
Sugar cane,4568345.8,138800.0,3.0382988958497847
Taro (cocoyam),4568345.8,199460.0,4.366131828286729
"Vegetables, fresh nes",4568345.8,81954.2,1.7939578917165158
