{
    "name": "Cameroon",
    "total_value": 7355863.0,
    "children": [
        {
            "name": "Bananas",
            "value": 91975.0,
            "value_percentage": 1.2503631456975206
        },
        {
            "name": "Beans, dry",
            "value": 307020.0,
            "value_percentage": 4.17381346009299
        },
        {
            "name": "Cassava",
            "value": 407017.0,
            "value_percentage": 5.53323247047967
        },
        {
            "name": "Cocoa, beans",
            "value": 672745.0,
            "value_percentage": 9.145697792359647
        },
        {
            "name": "Coffee, green",
            "value": 89898.0,
            "value_percentage": 1.2221271657723913
        },
        {
            "name": "Cow peas, dry",
            "value": 244058.0,
            "value_percentage": 3.3178703844810595
        },
        {
            "name": "Cucumbers and gherkins",
            "value": 324212.0,
            "value_percentage": 4.4075317879085025
        },
        {
            "name": "Groundnuts, with shell",
            "value": 445000.0,
            "value_percentage": 6.049596084103253
        },
        {
            "name": "Kola nuts",
            "value": 108735.0,
            "value_percentage": 1.4782086072021732
        },
        {
            "name": "Maize",
            "value": 1420018.0,
            "value_percentage": 19.304573780126137
        },
        {
            "name": "Melonseed",
            "value": 136625.0,
            "value_percentage": 1.8573619437991165
        },
        {
            "name": "Oil palm fruit",
            "value": 155000.0,
            "value_percentage": 2.1071626809797843
        },
        {
            "name": "Others",
            "value": 714775.0,
            "value_percentage": 9.717078743853712
        },
        {
            "name": "Plantains and others",
            "value": 346522.0,
            "value_percentage": 4.710827267990173
        },
        {
            "name": "Pumpkins, squash and gourds",
            "value": 176171.0,
            "value_percentage": 2.3949739140057393
        },
        {
            "name": "Rice, paddy",
            "value": 268408.0,
            "value_percentage": 3.6488988443640125
        },
        {
            "name": "Seed cotton",
            "value": 250000.0,
            "value_percentage": 3.398649485451265
        },
        {
            "name": "Sorghum",
            "value": 729651.0,
            "value_percentage": 9.919311982836005
        },
        {
            "name": "Sugar cane",
            "value": 135814.0,
            "value_percentage": 1.8463367248683125
        },
        {
            "name": "Taro (cocoyam)",
            "value": 230760.0,
            "value_percentage": 3.1370894210509355
        },
        {
            "name": "Tomatoes",
            "value": 101459.0,
            "value_percentage": 1.3792943125775998
        }
    ]
}