product_2,total_value,value,value_percentage
Bananas,6808635.0,74095.0,1.0882504349256497
"Beans, dry",6808635.0,294280.2,4.322161490519025
Cassava,6808635.0,355104.6,5.215503548068004
"Cocoa, beans",6808635.0,631822.8,9.279727874970535
"Coffee, green",6808635.0,110488.0,1.6227628592221495
"Cow peas, dry",6808635.0,221330.0,3.2507249984761994
Cucumbers and gherkins,6808635.0,286815.2,4.212521305665526
"Groundnuts, with shell",6808635.0,434666.6,6.384049078853543
Kola nuts,6808635.0,106932.8,1.570546812980869
Maize,6808635.0,1220560.6,17.926656370917225
Melonseed,6808635.0,127401.8,1.8711797592322104
Oil palm fruit,6808635.0,142050.0,2.086321267038107
Others,6808635.0,660431.2,9.699906075153095
Plantains and others,6808635.0,357901.8,5.256586672659057
"Pumpkins, squash and gourds",6808635.0,162701.8,2.3896390392494236
"Rice, paddy",6808635.0,216851.2,3.1849438250104467
Seed cotton,6808635.0,218800.0,3.2135663022030116
Sorghum,6808635.0,733642.6,10.775178872123412
Sugar cane,6808635.0,134819.6,1.9801267067481223
Taro (cocoyam),6808635.0,228719.6,3.3592577660573673
Tomatoes,6808635.0,89219.6,1.3103889399270192
