{
    "name": "Cameroon",
    "total_value": 6808635.0,
    "children": [
        {
            "name": "Bananas",
            "value": 74095.0,
            "value_percentage": 1.0882504349256497
        },
        {
            "name": "Beans, dry",
            "value": 294280.2,
            "value_percentage": 4.322161490519025
        },
        {
            "name": "Cassava",
            "value": 355104.6,
            "value_percentage": 5.215503548068004
        },
        {
            "name": "Cocoa, beans",
            "value": 631822.8,
            "value_percentage": 9.279727874970535
        },
        {
            "name": "Coffee, green",
            "value": 110488.0,
            "value_percentage": 1.6227628592221495
        },
        {
            "name": "Cow peas, dry",
            "value": 221330.0,
            "value_percentage": 3.2507249984761994
        },
        {
            "name": "Cucumbers and gherkins",
            "value": 286815.2,
            "value_percentage": 4.212521305665526
        },
        {
            "name": "Groundnuts, with shell",
            "value": 434666.6,
            "value_percentage": 6.384049078853543
        },
        {
            "name": "Kola nuts",
            "value": 106932.8,
            "value_percentage": 1.570546812980869
        },
        {
            "name": "Maize",
            "value": 1220560.6,
            "value_percentage": 17.926656370917225
        },
        {
            "name": "Melonseed",
            "value": 127401.8,
            "value_percentage": 1.8711797592322104
        },
        {
            "name": "Oil palm fruit",
            "value": 142050.0,
            "value_percentage": 2.086321267038107
        },
        {
            "name": "Others",
            "value": 660431.2,
            "value_percentage": 9.699906075153095
        },
        {
            "name": "Plantains and others",
            "value": 357901.8,
            "value_percentage": 5.256586672659057
        },
        {
            "name": "Pumpkins, squash and gourds",
            "value": 162701.8,
            "value_percentage": 2.3896390392494236
        },
        {
            "name": "Rice, paddy",
            "value": 216851.2,
            "value_percentage": 3.1849438250104467
        },
        {
            "name": "Seed cotton",
            "value": 218800.0,
            "value_percentage": 3.2135663022030116
        },
        {
            "name": "Sorghum",
            "value": 733642.6,
            "value_percentage": 10.775178872123412
        },
        {
            "name": "Sugar cane",
            "value": 134819.6,
            "value_percentage": 1.9801267067481223
        },
        {
            "name": "Taro (cocoyam)",
            "value": 228719.6,
            "value_percentage": 3.3592577660573673
        },
        {
            "name": "Tomatoes",
            "value": 89219.6,
            "value_percentage": 1.3103889399270192
        }
    ]
}