{
    "name": "Côte d'Ivoire",
    "total_value": 8126030.0,
    "children": [
        {
            "name": "Cashew nuts, with shell",
            "value": 1020718.6,
            "value_percentage": 12.561098100794608
        },
        {
            "name": "Cassava",
            "value": 355977.0,
            "value_percentage": 4.380700046640242
        },
        {
            "name": "Cocoa, beans",
            "value": 2523512.0,
            "value_percentage": 31.054672453830467
        },
        {
            "name": "Coffee, green",
            "value": 530076.6,
            "value_percentage": 6.523192752180338
        },
        {
            "name": "Kola nuts",
            "value": 92595.0,
            "value_percentage": 1.139486317426837
        },
        {
            "name": "Maize",
            "value": 317557.0,
            "value_percentage": 3.9078984448740655
        },
        {
            "name": "Mangoes, mangosteens, guavas",
            "value": 85133.8,
            "value_percentage": 1.047667803343084
        },
        {
            "name": "Oil palm fruit",
            "value": 261400.0,
            "value_percentage": 3.2168229750567003
        },
        {
            "name": "Others",
            "value": 761885.2,
            "value_percentage": 9.375860044818934
        },
        {
            "name": "Plantains and others",
            "value": 416524.6,
            "value_percentage": 5.125806820796871
        },
        {
            "name": "Rice, paddy",
            "value": 520771.6,
            "value_percentage": 6.408684191419425
        },
        {
            "name": "Rubber, natural",
            "value": 157089.4,
            "value_percentage": 1.9331629344218517
        },
        {
            "name": "Seed cotton",
            "value": 244400.0,
            "value_percentage": 3.0076187264875958
        },
        {
            "name": "Yams",
            "value": 838389.2,
            "value_percentage": 10.317328387908978
        }
    ]
}