{
    "name": "Indonesia",
    "total_value": 41186172.6,
    "children": [
        {
            "name": "Cashew nuts, with shell",
            "value": 569134.0,
            "value_percentage": 1.381856977892624
        },
        {
            "name": "Cassava",
            "value": 1147769.8,
            "value_percentage": 2.7867843199394544
        },
        {
            "name": "Cloves",
            "value": 393260.0,
            "value_percentage": 0.9548350214994243
        },
        {
            "name": "Cocoa, beans",
            "value": 1712955.0,
            "value_percentage": 4.159053614027733
        },
        {
            "name": "Coconuts",
            "value": 2976000.0,
            "value_percentage": 7.22572604379364
        },
        {
            "name": "Coffee, green",
            "value": 1260662.2,
            "value_percentage": 3.060886992932186
        },
        {
            "name": "Groundnuts, with shell",
            "value": 572199.4,
            "value_percentage": 1.3892997670776528
        },
        {
            "name": "Maize",
            "value": 3987225.2,
            "value_percentage": 9.680980164687602
        },
        {
            "name": "Oil palm fruit",
            "value": 8557190.6,
            "value_percentage": 20.776853151924097
        },
        {
            "name": "Others",
            "value": 3774313.4,
            "value_percentage": 9.164030454240363
        },
        {
            "name": "Rice, paddy",
            "value": 11690000.0,
            "value_percentage": 28.383312315842623
        },
        {
            "name": "Rubber, natural",
            "value": 3475278.2,
            "value_percentage": 8.437973185204397
        },
        {
            "name": "Soybeans",
            "value": 624857.0,
            "value_percentage": 1.517152385264369
        },
        {
            "name": "Sugar cane",
            "value": 445327.8,
            "value_percentage": 1.0812556056738323
        }
    ]
}