{
    "name": "Malaysia",
    "total_value": 7154356.6,
    "children": [
        {
            "name": "Oil palm fruit",
            "value": 4970340.6,
            "value_percentage": 69.47292227507921
        },
        {
            "name": "Others",
            "value": 469879.4,
            "value_percentage": 6.567738040902239
        },
        {
            "name": "Rice, paddy",
            "value": 679310.4,
            "value_percentage": 9.49505927618984
        },
        {
            "name": "Rubber, natural",
            "value": 1034826.2,
            "value_percentage": 14.464280407828706
        }
    ]
}