product_2,total_value,value,value_percentage
Oil palm fruit,7154356.6,4970340.6,69.47292227507921
Others,7154356.6,469879.4,6.567738040902239
"Rice, paddy",7154356.6,679310.4,9.49505927618984
"Rubber, natural",7154356.6,1034826.2,14.464280407828706
