{
    "name": "Malaysia",
    "total_value": 7416439.0,
    "children": [
        {
            "name": "Oil palm fruit",
            "value": 5216822.0,
            "value_percentage": 70.3413322755031
        },
        {
            "name": "Others",
            "value": 431209.0,
            "value_percentage": 5.814232409920718
        },
        {
            "name": "Rice, paddy",
            "value": 684416.0,
            "value_percentage": 9.22836417854984
        },
        {
            "name": "Rubber, natural",
            "value": 1083992.0,
            "value_percentage": 14.616071136026331
        }
    ]
}